/* XPM */
static char * pixMove_xpm[] = {
"26 33 3 1",
" 	c None",
".	c #000000",
"+	c #929292",
"                          ",
"                          ",
"                          ",
"                          ",
"                          ",
"                          ",
"                          ",
"                          ",
"                          ",
"                          ",
"            .             ",
"           ...            ",
"          .....           ",
"            .+++          ",
"            .+            ",
"       .    .+   .        ",
"      ..    .+   ..       ",
"     ...............      ",
"      ..++++.++++..++     ",
"       .+   .+   .++      ",
"        +   .+    +       ",
"            .+            ",
"          .....           ",
"           ...+           ",
"            .+            ",
"            +             ",
"                          ",
"                          ",
"                          ",
"                          ",
"                          ",
"                          ",
"                          "};
