/* XPM */
static char *data_Visu3d[] = {
/* columns rows colors chars-per-pixel */
"287 103 256 2",
"   c gray51",
".  c #fffee2",
"X  c #cacaca",
"o  c gray98",
"O  c #8e8e8e",
"+  c #1e1e1e",
"@  c #020202",
"#  c #e2e2e2",
"$  c #f6f6f6",
"%  c #e6e6e6",
"&  c #565656",
"*  c #c6c6c6",
"=  c #3a3a3a",
"-  c #727272",
";  c gray95",
":  c #eeeeee",
">  c #eaeaea",
",  c gray87",
"<  c gray84",
"1  c #dadada",
"2  c #cecece",
"3  c #d2d2d2",
"4  c gray76",
"5  c #b2b2b2",
"6  c gray73",
"7  c #bebebe",
"8  c gray65",
"9  c #aaaaaa",
"0  c #aeaeae",
"q  c #9a9a9a",
"w  c #a2a2a2",
"e  c #b6b6b6",
"r  c #929292",
"t  c gray54",
"y  c gray",
"u  c #868686",
"i  c gray62",
"p  c #767676",
"a  c gray59",
"s  c gray48",
"d  c #6a6a6a",
"f  c #626262",
"g  c #5a5a5a",
"h  c gray40",
"j  c gray37",
"k  c gray43",
"l  c #f1f6f1",
"z  c #edf2ea",
"x  c #e4f7e3",
"c  c #e2ebe2",
"v  c #e2f2e2",
"b  c #d5f3d4",
"n  c #d7ecd6",
"m  c #c8efc7",
"M  c #c6eac5",
"N  c #b6e9b4",
"B  c #ceeacc",
"V  c #afe8ad",
"C  c #ace1a8",
"Z  c #98e196",
"A  c #c0e4bd",
"S  c #a3e5a2",
"D  c #90e08e",
"F  c #89d985",
"G  c #7ad977",
"H  c #b5e1b2",
"J  c #a2de9f",
"K  c #82da7f",
"L  c #6ad566",
"P  c #d6e6ca",
"I  c #72d76e",
"U  c #60d25c",
"Y  c #58d052",
"T  c #4ccd46",
"R  c #52cd4d",
"E  c #45ca3f",
"W  c #48c53c",
"Q  c #50c340",
"!  c #fefefe",
"~  c #56c94b",
"^  c #53bd3d",
"/  c #5cbb41",
"(  c #5bb43b",
")  c #76af4a",
"_  c #7fa244",
"`  c #fafefa",
"'  c #63b441",
"]  c #6eaa40",
"[  c #7eae4e",
"{  c #849e46",
"}  c #969e52",
"|  c #ae925a",
" . c #b6d6aa",
".. c #6eae43",
"X. c #a2c282",
"o. c #84a64c",
"O. c #909a4a",
"+. c #aaaa72",
"@. c #a68e52",
"#. c #c17a52",
"$. c #d2c4aa",
"%. c #f6fef5",
"&. c #effaef",
"*. c #eaf9ea",
"=. c #dcf5dc",
"-. c #cef1cd",
";. c #c2eec1",
":. c #bcedba",
">. c #87de84",
",. c #96da92",
"<. c #e6f2e5",
"1. c #64ad3b",
"2. c #d2dac2",
"3. c #58c246",
"4. c #70a43c",
"5. c #7e9e42",
"6. c #8f9145",
"7. c #a2aa6a",
"8. c #779d3b",
"9. c #84953e",
"0. c #8c8e3d",
"q. c #8a8a3a",
"w. c #98873f",
"e. c #9e8a46",
"r. c #ad854d",
"t. c #a57f41",
"y. c #ae7641",
"u. c #b57444",
"i. c #c6b292",
"p. c #9e7e3e",
"a. c #a8793e",
"s. c #bf724a",
"d. c #c36a44",
"f. c #d26d54",
"g. c #d3654c",
"h. c #db5e4c",
"j. c #e2caba",
"k. c #b76d40",
"l. c #c86240",
"z. c #d15b42",
"x. c #d5553f",
"c. c #e25549",
"v. c #dd4c3d",
"b. c #e44c42",
"n. c #e5463c",
"m. c #e6423a",
"M. c #e2c6c2",
"N. c #8ece7e",
"B. c #ea423d",
"V. c #f14241",
"C. c #ea3e38",
"Z. c #ea3a36",
"A. c #ef3635",
"S. c #ee3232",
"D. c #f03a39",
"F. c #f26767",
"G. c #e63e37",
"H. c #ee2e2e",
"J. c #f16262",
"K. c #e9aaa5",
"L. c #c6dab2",
"P. c #f04645",
"I. c #dc5644",
"U. c #b48350",
"Y. c #f13e3d",
"T. c #f24c4c",
"R. c #ee2a2a",
"E. c #f15251",
"W. c #f25858",
"Q. c #f15e5e",
"!. c #ea4b44",
"~. c #f67272",
"^. c #f67f7f",
"/. c #f08382",
"(. c #e26254",
"). c #f67979",
"_. c #f68c8c",
"`. c #f69494",
"'. c #f99e9e",
"]. c #f6a2a2",
"[. c #f56e6e",
"{. c #f68686",
"}. c #f69a9a",
"|. c #f8a6a6",
" X c #f9acac",
".X c #f9b4b4",
"XX c #fababa",
"oX c #fabebe",
"OX c #fac3c3",
"+X c #eec7c6",
"@X c #eee2e2",
"#X c #ea726c",
"$X c #facaca",
"%X c #fbd0d0",
"&X c #fdd8d8",
"*X c #f2d8d8",
"=X c #ee9795",
"-X c #fee0e0",
";X c #fee6e6",
":X c #f9e1e1",
">X c #f0e6e5",
",X c #eeadaa",
"<X c #f6c5c5",
"1X c #feeaea",
"2X c #feeeee",
"3X c #fef2f2",
"4X c #faeceb",
"5X c #f1bdbc",
"6X c #fef6f6",
"7X c #fefafa",
"8X c #ee7a78",
"9X c #f0d0ca",
"0X c #f2dede",
"qX c #f2e2dc",
"wX c #f6ebe9",
"eX c #d0e4cc",
"rX c #ebdede",
"tX c white",
"yX c #abd298",
"uX c #91c777",
"iX c #ded6be",
"pX c #c2ca9e",
"aX c #debeae",
"sX c #ecb3af",
"dX c #f08c8b",
"fX c #a0904d",
"gX c #d2725a",
"hX c #9ed692",
"jX c #86b662",
"kX c #82be66",
"lX c #6bb345",
"zX c #a09754",
"xX c #96a256",
"cX c #b68e5a",
"vX c #bd8458",
"bX c #cc795b",
"nX c #72be52",
"mX c #a6985a",
"MX c #dc6551",
"NX c #e6574d",
"BX c #9abe76",
"VX c #92b25e",
"CX c #a28a4a",
"ZX c #e65249",
"AX c #d2daba",
"SX c #b6b682",
"DX c #b2a26a",
"FX c #d6bea2",
"GX c #cea686",
"HX c #ce8e6e",
"JX c #da927e",
"KX c white",
"LX c white",
"PX c white",
"IX c white",
"UX c white",
/* pixels */
"                                                                                                                                                                                                                                                                                                                                                                                                                                                                                                                                                                                              ",
"                                                                                                                                                                                                                                                                                                                                                                                                                                                                                                                                                                                            tX",
"                                                                                                                                                                                                                                                                                                                                                                                                                                                                                                                                                                                          tXtX",
"                                                                                                                                                                                                                                                                                                                                                                                                                                                                                                                                                                                        tXtXtX",
"                                                                                                                                                                                                                                                                                                                                                                                                                                                                                                                                                                                      tXtXtXtX",
"          . . . . . . . . . . . . . . . . . . . . . . . . . . . . . . . . . . . . . . . . . . . . . . . . . . . . . . . . . . . . . . . . . . . . . . . . . . . . . . . . . . . . . . . . . . . . . . . . . . . . . . . . . . . . . . . . . . . . . . . . . . . . . . . . . . . . . . . . . . . . . . . . . . . . . . . . . . . . . . . . . . . . . . . . . . . . . . . . . . . . . . . . . . . . . . . . . . . . . . . . . . . . . . . . . . . . . . . . . . . . . . . . . . . . . . . . . . . . . . . . . . . . . . . . . . . . . . . . . . . . . . . . . . . . . . . . . . . . . . tXtXtXtX",
"          . . . . . . . . . . . . . . . . . . . . . . . . . . . . . . . . . . . . . . . . . . . . . . . . . . . . . . . . . . . . . . . . . . . . . . . . . . . . . . . . . . . . . . . . . . . . . . . . . . . . . . . . . . . . . . . . . . . . . . . . . . . . . . . . . . . . . . . . . . . . . . . . . . . . . . . . . . . . . . . . . . . . . . . . . . . . . . . . . . . . . . . . . . . . . . . . . . . . . . . . . . . . . . . . . . . . . . . . . . . . . . . . . . . . . . . . . . . . . . . . . . . . . . . . . . . . . . . . . . . . . . . . . . . . . . . . . . . . . . tXtXtXtX",
"          . . . . . . . . . . . . . . . . . . . . . . . . . . . . . . . . . . . . . . . . . . . . . . . . . . . . . . . . . . . . . . . . . . . . . . . . . . . . . . . . . . . . . . . . . . . . . . . . . . . . . . . . . . . . . . . . . . . . . . . . . . . . . . . . . . . . . . . . . . . . . . . . . . . . . . . . . . . . . . . . . . . . . . . . . . . . . . . . . . . . . . . . . . . . . . . . . . . . . . . . . . . . . . . . . . . . . . . . . . . . . . . . . . . . . . . . . . . . . . . . . . . . . . . . . . . . . . . . . . . . . . . . . . . . . . . . . . . . . . tXtXtXtX",
"          . . . . . . . . . . . . . . . . . . . . . . . . . . . . . . . . . . . . . . . . . . . . . . . . . . . . . . . . . . . . . . . . . . . . . . . . . . . . . . . . . . . . . . . . . . . . . . . . . . . . . . . . . . . . . . . . . . . . . . . . . . . . . . . . . . . . . . . . . . . . . . . . . . . . . . . . . . . . . . . . . . . . . . . . . . . . . . . . . . . . . . . . . . . . . . . . . . . . . . . . . . . . . . . . . . . . . . . . . . . . . . . . . . . . . . . . . . . . . . . . . . . . . . . . . . . . . . . . . . . . . . . . . . . . . . . . . . . . . . tXtXtXtX",
"          . . . . . . . . . . . . . . . . . . . . . . . . . . . . . . . . . . . . . . . . . . . . . . . . . . . . . . . . . . . . . . . . . . . . . . . . . . . . . . . . . . . . . . . . . . . . . . . . . . . . . . . . . . . . . . . . . . . . . . . . . . . . . . . . . . . . . . . . . . . . . . . . . . . . . . . . . . . . . . . . . . . . . . . . . . . . . . . . . . . . . . . . . . . . . . . . . . . . . . . . . . . . . . . . . . . . . . . . . . . . . . . . . . . . . . . . . . . . . . . . . . . . . . . . . . . . . . . . . . . . . . . . . . . . . . . . . . . . . . tXtXtXtX",
"          . . . . . . . . . . . . . . . . . . . . . . . . . . . . . . . . . . . . . . . . . . . . . . . . . . . . . . . . . . . . . . . % X . . . . . . . . . . . . . . . . . . . . . . . . . . . . . . . . . . . . . . . . . . . . . . . . . . . . . . . . . . . . . . . . . . . . . . . . . . . . . . . . . . . . . . . . . . . . . . . . . . . . . . . . . . . . . . . . . . . . . . . . . . . . . . . . . . . . . . . . . . . . . . . . . . . . . . . . . . . . . . . . ` ` ` ` ` ` ` ` ` ` ` ` . . ` ` . . ` ` ` ` ` %.%.%.%.%.%.` . . . . . . . . . . . . . . . . . . . . . . . tXtXtXtX",
"          . . . . . . . . . . . . . . . . . . . . . . . . . . . . . . . . . . . . . . . . . . . . . . . . . . . . . . . . . . . . . % - @ @ o o o o o o o o o o . . . . . . . . . . . . . . . . . . . . . . . . . . . . . . . . . . . . . . . . . . . . . . . . . . . . . . . . . . . . . . . . . . . . . . . . . . . . . . . . . . . . . . . . . . . . . . . . . . . . . . . . . . . . . . . . . . . . . . o o o o o o o o o . . . . . . . . . . . . . . . . . . . . ` ` o o &.o &.l *.l l l *.l *.&.&.&.&.&.&.&.&.&.&.&.*.*.*.*.&.&.%.%.` . . . . . . . . . . . . . . . . . . . . . tXtXtXtX",
"          . . . . . . . . . . . . . . . . . . . X . . . o o o o o . . . . . . . . . . . . . . . . . . . . . . . . . . . . . . . * = @ @ @ @ o $ $ $ $ $ $ $ $ o o o . . . . . . . . . . . . . . . . . . . . . . . . . . . . . . . . . . . . . . . . . . . . . . . . . . . . . . . . . . . . . . . . . . . . . . . . . . . . . . . . . . . . . . . . . . . . . . . . . . . . . . . . . . . . . % . . . . . $ o o $ $ $ $ o o o o o o o . . . . . . . . . . . ` ` ` o &.. *.x x <.v v v v v b =.v =.v b v v =.=.x =.=.=.=.b =.b =.b =.x *.&.%.%.. . . . . . . . . . . . . . . . . . . . tXtXtXtX",
"          . . . . . . . . . . . . . . . . O + @ @ # o o o o o o $ $ o o o . . . . . . . . . . . . % @ & % . . . o o o o o o * = @ @ @ @ @ @ $ $ ; ; ; ; $ $ $ $ o o o . . . . . . . . . . . . . . . . . . . . . . . . . . . . . . . . . . . . . . . . . . . . . . . . . . . . . . . . . . . . . . . . . . . . . . . . . . . . . . . . . . . . . . . . . . . . . . . . . . . . . . . . . . & @ @ @ @ @ @ @ @ + - X $ $ ; ; $ ; $ $ o $ o o . . . ` ` . . . . . . . . . . 8 9 9 9 9 9 M m M M M M m M M ;.m M M m m m ;.m ;.;.:.;.:.m -.b x *.%.%.. . . . . . . . . . . . . . . . . . . tXtXtXtX",
"          . . . . . . . . . . . . . . O + @ @ @ @ - $ $ $ $ ; $ $ $ $ o o o . . . . . . . . . . . . @ @ @ & * o o o $ $ $ $ @ @ @ @ @ @ @ @ ; : ; : : : : : ; ; $ $ o o . . . . . . . . . . . . . . . . . . . . . . . . . . . . . . . . . . . . . . . . . . . . . . . . . . . . . . . . . . . . . . . . . . . . . . . . . . . . . . . . . . . . . . . . . . . . . . . . . . . . . . O + @ @ @ @ @ @ @ @ @ @ @ @ @ = * : : : ; : ; ; $ . . . &.&.l = @ @ @ @ @ @ @ @ @ @ @ @ @ @ @ @ @ @ + & 9 # J C S C S C S C S S C S S Z S Z S S V ;.b =.*.%.` . . . . . . . . . . . . . . . . . . tXtXtXtX",
"          . . . . . . . . . . . . O + @ @ @ @ @ @ @ X ; ; ; : ; ; ; ; $ $ $ o o . . . . . . . . . O @ @ @ @ @ + - $ ; ; ; ; @ @ @ @ @ @ @ @ : > > > > % > > : : ; $ $ o o . . . . . . . . . . . . . . . . . . . . . . . . . . . . . . . . . . . . . . . . . . . . . . . . . . . . . . . . . . . . . . . . . . . . . . . . . . . . . . . . . . . . . . . . . . . . . . . . . . . % & @ @ @ @ @ @ @ @ @ @ @ @ @ @ @ @ @ - % % > > c c c v <.v v x b @ @ @ @ @ @ @ @ @ @ @ @ @ @ @ @ @ @ @ @ @ @ @ = t J J D F F F F K K K F K K K >.>.Z V ;.b x &.%.. . . . . . . . . . . . . . . . . . tXtXtXtX",
"          . . . . . . . . . . O + @ @ @ @ @ @ @ @ @ = > > > > > > : : ; ; $ $ o o . . . . . . . o & @ @ @ @ @ @ @ ; ; ; : : @ @ @ @ @ @ @ @ % % # , , # # % > > : ; $ $ o . . . . . . . . . . . . . . . . . . . . . . . . . . . . . . . . . . . . . . . . . . . . . . . . . . . . . . . . . . . . . . . . . . . . . . . . . . . . . . . . . . . . . . . . . . . . . . . . . . . + @ @ @ @ @ @ @ @ @ @ @ @ @ @ @ @ @ @ @ & , # % % > c n B B B B M @ @ @ @ @ @ @ @ @ @ @ @ @ @ @ @ @ @ @ @ @ @ @ @ @ + t % eXH J F U L U L U U U U L G D V -.=.*.%.` . . . . . . . . . . . . . . . . . tXtXtXtX",
"          . . . . . . . . . + @ @ @ @ @ @ @ @ @ @ @ @ * # # , # # % % : : ; $ o o o . . . . . . o + @ @ @ @ @ @ - > > > > % @ @ @ @ @ @ @ @ , , , 1 < 1 1 , # % > : ; $ $ o . . . . . . . . . . . . . . . . . . . . . . . . . . . . . . . . . . . . . . . . . . . . . . . . . . . . . . . . . . . . . . . . . . . . . . . . . . . . . . . . . . . . . . . . . . . . . . . . . & @ @ @ @ @ @ @ @ @ @ @ @ @ @ @ @ @ @ @ @ @ 9 < 1 , , # % % A C V C @ @ @ @ @ @ @ @ @ @ @ @ @ @ @ @ @ @ @ @ @ @ @ @ @ @ @ + 9 # # > eXC G R Y T T T Y U K Z N =.x %.%.. . . . . . . . . . . . . . . . . tXtXtXtX",
"          . . . . . . . . & @ @ @ @ @ @ @ @ @ @ @ @ @ = < < 1 1 1 1 # # > : ; ; $ o o . . . . . % @ @ @ @ @ @ @ # % # # , # @ @ @ @ @ @ + 9 < 3 3 3 3 3 < < , # % : ; $ o o . . . . . . . . . . . . . . . . . . . . . . . . . . . . . . . . . . . . . . . . . . . . . . . . . . . . . . . . . . . . . . . . . . . . . . . . . . . . . . . . . . . . . . . . . . . . . . . . * @ @ @ @ @ @ @ @ @ @ @ @ @ @ @ @ @ @ @ @ @ @ + X 2 3 1 1 # % c A F F @ @ @ @ @ @ @ @ @ @ @ @ @ @ @ @ @ @ @ @ @ @ @ @ @ @ @ @ @ & % , # # % H I T E E T Y I Z N b x &.` . . . . . . . . . . . . . . . . . tXtXtXtX",
"          . . . . . . . . . @ @ @ @ @ @ @ @ @ @ @ @ @ @ * X X 2 3 < 1 1 # % : ; $ o o . . . . o O @ @ @ @ @ @ O # , 1 1 < < @ @ @ @ = t < < 3 X X X X X 2 3 < , # > : ; $ o o . . . . . . . . . . . . . . . . . . . . . . . . . . . . . . . . . . . . . . . . . . . . . . . . . . . . . . . . . . . . . . . . . . . . . . . . . . . . . . . . . . . . . . . . . . . ` %.%.&.- @ @ @ @ @ @ @ @ @ @ @ @ @ @ @ @ @ @ @ @ @ @ @ O 4 * 2 3 < , # % A F @ @ @ @ @ @ @ = 8 9 9 & & & @ @ @ @ @ @ @ @ @ @ @ @ @ @ @ @ + # 1 , , # > H L E E Y I D N n v l o . . . . . . . . . . . . . . . . . tXtXtXtX",
"          . . . . . . . . o = @ @ @ @ @ @ @ @ @ @ @ @ @ = 4 4 4 * * 2 < 1 # % : ; $ $ o . . . . = @ @ @ @ @ + # , < < 3 3 3 @ @ = * 3 3 2 X X * 4 4 7 4 * X 3 < , % > ; $ $ o . . . . . . . . . . . . . . . . . . . . . . . . . . . . . . - & X . . . . o o o o . . . . . . . . . . . . . . . . . . . . . . . . . . . . . . . . . . . . . . . . . . . . . . ` ` %.&.&.&.x *.- @ @ @ @ @ @ @ @ + O * * 7 # t + @ @ @ @ @ @ @ & e 6 4 * 2 3 1 # % eX@ @ @ @ @ @ @ # 3 X 4 7 6 e 5 5 9 k + @ @ @ @ @ @ @ @ @ @ @ @ + 9 3 < 1 , % % H I U G J H P c z ; $ . . . . . . . . . . . . . . . . tXtXtXtX",
"          . . . . . . . . o * @ @ @ @ @ @ @ @ @ @ @ @ @ @ * 5 5 6 7 * 2 3 , # > : $ $ $ o o o # @ @ @ @ @ @ O 1 < 2 X * * * & * X X 2 2 X 4 4 7 6 6 6 6 4 * 2 < , % > ; $ o o o . . . . . . . . . . . . . . . . . . . . . . . . . . . . . @ @ @ - o o o o o o $ o o o . . . . . . . . . . . . . . . . . . . . . . . . . . . . . . . . . . . . . . . . ` %.%.&.*.*.x =.=.b -.m * = @ @ @ @ @ + # X 4 6 e 5 8 # + @ @ @ @ @ @ @ 9 0 e 7 4 2 3 < , # @ @ @ @ @ @ @ 3 X 4 6 5 0 9 8 8 8 w 8 * - @ @ @ @ @ @ @ @ @ @ @ @ 9 2 2 3 1 , # % yXuXyXL.iX@XqX;X1X3X6X. . . . . . . . . . . . . . tXtXtXtX",
"          . . . . . . . . . o & @ @ @ @ @ @ @ @ @ @ @ @ @ = 8 9 0 5 6 4 2 3 1 # > : ; o o o o O @ @ @ @ @ = 1 3 X * 4 4 6 7 7 7 4 * * 4 4 4 7 6 e e 5 6 7 4 2 3 1 # > : ; $ o . . . . . o o o o o o o o o o o . . . . . . . . . . . . . @ @ @ @ @ 9 $ o $ $ $ $ $ $ o o o . . . . . . . . . . . . . . . . . . . . . . . . . . . . . . . . . . ` ` %.%.&.&.*.x =.b b -.m N V V C Z # - @ @ @ O X * 6 e 9 w i q * @ @ @ @ @ @ @ i w 8 0 6 7 * 3 1 , @ @ @ @ @ @ + X 7 6 0 9 8 w i q q i q q q # & @ @ @ @ @ @ @ @ @ @ @ * * 2 3 < , # % 2.pX$.j.j.9X*X0X;X1X3X6X. . . . . . . . . . . . tXtXtXtX",
"          . . . . . . . . o o # @ @ @ @ @ @ @ @ @ @ @ @ @ @ * q w 8 0 e 4 2 < , % : ; $ o o o = @ @ @ @ @ * < 2 * 4 e e 5 e 6 6 7 7 4 4 7 6 e 5 5 5 5 5 6 7 X 3 1 # > : ; # O & = @ @ & & 9 # $ $ $ $ $ $ o $ o o o . . . . . . . . % @ @ @ @ @ & $ ; ; ; ; ; ; $ $ $ $ $ o o . . . . . . . . . . . . . . . . . . . . . . . . . . ` ` ` %.%.%.&.*.*.x =.=.b -.;.:.V V S Z Z >.F K G ,.% O + * * 7 5 9 w i a O t = @ @ @ @ @ @ a q w 8 5 6 4 X 3 < @ @ @ @ @ @ & * 6 5 8 i q a r r r r a a a a a 9 + @ @ @ @ @ @ @ @ @ + # 7 * X 3 1 # # 1 aX,XsX.XoX<X&X-X;X3X. . . . . . . . . . . . tXtXtXtX",
"          . . . . . . o o o $ $ - @ @ @ @ @ @ @ @ @ @ @ @ @ = O r q w 5 6 * 3 1 # > : $ $ o * @ @ @ @ @ - 1 2 * 7 e 5 5 0 0 5 e e 6 6 6 # + * e 5 0 0 e 6 4 X 3 1 , > : - @ @ @ @ @ @ @ @ @ @ = 9 ; ; ; $ ; $ $ $ o o o . . . . . # + @ @ @ @ + # ; ; : : : : : : : ; $ - @ @ @ @ @ . o o o o o o o o o . . . . . . . . . . ` %.%.%.&.&.*.x x =.=.b b -.:.:.V V S Z >.>.K I L L U U J % , 3 X 7 e 0 w q r O t u & @ @ @ @ @ @ t r a i 8 0 6 4 2 < @ @ @ @ @ @ & 6 5 8 w q r O O O t O O O O r a r # + @ @ @ @ @ @ @ @ @ = 5 6 4 X 2 < , % @XK.dX`.}. XXX$X-X1X3X. . . . . . . . . . . tXtXtXtX",
"          . . . . . . . . o $ ; # + @ @ @ @ @ @ @ @ @ @ @ @ @ O t r q 8 0 6 X 3 , % > ; ; $ - @ @ @ @ @ # 3 X 7 e 5 9 9 9 8 0 5 e 6 6 O @ @ 9 5 5 5 0 5 e 7 * 3 1 , % + @ @ @ @ @ @ @ @ @ @ @ @ = : : > : : : ; $ ; o $ o o . . . & @ @ @ @ @ * : > : % % % % % > > : ; @ @ @ @ @ @ - $ $ $ $ $ $ $ o $ o o . . ` ` ` %.%.&.&.*.x =.=.=.b b -.-.;.:.V V S Z D >.G G L L U Y Y Y ~ R H # , 3 X 7 5 9 w q r O t   & @ @ @ @ @ = u t O a i 8 5 6 4 2 @ @ @ @ @ @ & 6 0 w q r O t u u t t O r r r r r r # + @ @ @ @ @ @ @ @ @ O 0 e 7 * 2 < 1 # # dX#X8X{.].XX%X-X2X6X. . . . . . . . . . tXtXtXtX",
"          . . . . . . . . o o $ : O @ @ @ @ @ @ @ @ @ @ @ @ @ + y u O q 9 e 7 2 < , > : ; $ @ @ @ @ @ O < 2 * 7 e 9 8 w w 8 9 0 5 * = @ @ @ 9 5 5 0 5 e 6 4 X 3 1 # + @ @ @ @ @ @ @ @ @ @ @ @ @ @ # # % % > > : : ; ; $ $ o o o . @ @ @ @ @ - : > > # # , # # # % > : : @ @ @ @ @ @ 9 $ ; ; ; ; ; ; l $ l o . &.&.&.*.*.x x =.=.b -.-.:.:.N N V S Z Z D >.G G L U U Y R T T E T E W H # 1 3 * 6 5 8 i a O t t u = @ @ @ @ @ -     t O q w 9 e 4 * @ @ @ @ @ @ & 5 9 i a O t u u t u t O O r r a a r r * @ @ @ @ @ @ @ @ @ @ # 9 5 6 * X < 1 # j.J.W.[./.|.OX&X;X6X. . . . . . . . . . tXtXtXtX",
"          . . . . . . . . o $ $ : % + @ @ @ @ @ @ @ @ @ @ @ @ @ O y u r i 0 6 * 3 1 # : : O @ @ @ @ + , < X 7 e 0 8 w i w w 8 * = @ @ @ @ @ 9 5 5 5 5 e 6 4 * 3 1 - @ @ @ @ @ @ @ @ @ @ @ @ @ @ @ 1 1 , 1 , # % > : ; $ $ $ o # @ @ @ @ @ + : > # # , 1 < < 1 1 , # % > @ @ @ @ @ @ # ; ; : : : : : z <.<.z <.<.=.x v b b -.m ;.:.V V S Z Z D D >.K G L L U U Y T T T W W W W W Q ^ C # , 3 X 7 5 9 w q a O O # @ @ @ @ @ @ *     u t r q 8 5 7 4 @ @ @ @ @ @ & 5 8 q a t u u u t O O r a q q q q q a r - @ @ @ @ @ @ @ @ @ = w 8 0 6 4 2 < , % ,XC.W.[.`..X%X:X2X. . . . . . . . . . tXtXtXtX",
"          . . . . . . o o o $ ; : > 9 @ @ @ @ @ @ @ @ @ @ @ @ @ + p   t q 8 5 7 2 < # % : = @ @ @ @ 9 1 3 * 7 5 9 w w w w 9 = @ @ @ @ @ @ @ 9 6 e e e 6 7 4 X 3 # @ @ @ @ @ @ @ @ @ @ @ @ @ @ @ @ 9 2 2 3 < 1 1 , % > : ; $ $ = @ @ @ @ @ 9 % # , < < 3 3 3 3 < < 1 # % @ @ @ @ @ @ : : > > > > > % % c n n n n -.m ;.:.:.V V S Z D >.K G G I L L U U Y R T ~ Q Q W ^ Q ^ ^ ^ ( ^ /  .# 1 < X 7 e 0 8 w q a r & @ @ @ @ @ +     u u t r q w 9 e 4 @ @ @ @ @ @ & 0 8 q O O t u u t O a q i i w w w w i i a + @ @ @ @ @ @ @ @ @ * i 8 0 6 4 X < , % ,XP.F.dX,X%X-X2X6X. . . . . . . . . tXtXtXtX",
"          . . . . . . . o o $ ; : % , = @ @ @ @ @ @ @ @ @ @ @ @ @ O p   O i 0 6 * 3 1 # * @ @ @ @ = , < 2 4 6 5 9 w i i w & @ @ @ @ @ @ @ @ 9 6 e e e 6 7 * X 3 - @ @ @ @ @ @ @ @ @ @ @ @ @ @ @ @ 9 4 * * X 3 < 1 , # > : ; 9 @ @ @ @ @ = % # , 1 3 2 X * X X 3 < 1 , # @ @ @ @ @ @ % > % # # # # % % % B :.A V H V S S Z D D K G I L U U U U R Y R ~ Q ^ ^ ^ ^ ( ( ( ( 1.1.1.1.] ] X.% , < 2 * 7 5 9 8 w # & @ @ @ @ @ @ X u       u O a w 9 e 7 @ @ @ @ @ @ + 0 w q O t t t t O a q i 8 9 0 0 9 0 8 w i - @ @ @ @ @ @ @ @ @ = a i w 0 6 4 2 < # % /.J.dX X%X:X2X6X. . . . . . . . . tXtXtXtX",
"          . . . . . . . . o o $ : > # * @ @ @ @ @ @ @ @ @ @ @ @ @ + - y t a w 0 7 X < , = @ @ @ @ * , 3 X 7 e 9 8 i i i w * @ @ @ @ @ @ @ @ 9 6 e e e 6 7 4 X 2 + @ @ @ @ @ @ @ @ @ @ @ @ @ @ @ @ O e e 6 7 4 X 2 1 , % > : + @ @ @ @ @ * # 1 < 2 * * 4 4 4 * * 2 3 1 # @ @ @ @ @ @ % , , 1 1 2., , , % % A Z Z D >.>.G G I L L U Y Y R T ~ Q ~ ^ 3./ / ( ( 1.1.1.4.4.4._ 5.{ O.O.6.7.# # 1 3 X 4 7 X 9 & @ @ @ @ @ @ @ 9 O t u u u t t a i 9 5 7 @ @ @ @ @ @ @ 9 8 q r O t t r a q 8 9 5 e e 6 6 e 5 5 9 # @ @ @ @ @ @ @ @ @ @ # r i 8 5 7 4 3 1 # # ^.dX,X%X>X2X6X. . . . . . . . . tXtXtXtX",
"          . . . . . . . . o $ $ ; > # < = @ @ @ @ @ @ @ @ @ @ @ @ @ O p   O i 9 e 4 2 # @ @ @ @ - , 1 2 * 6 e 9 8 w w w 8 9 + @ @ @ @ @ @ @ 9 7 6 e e e 6 7 * # @ @ @ @ @ @ @ @ @ @ @ @ @ @ @ @ @ & 8 8 9 5 e 4 * 3 < , % O @ @ @ @ @ + % , 3 2 X 4 6 6 6 7 4 * 2 3 < , @ @ @ @ @ @ # 1 1 < 3 3 3 < 1 , # % ,.G I L L L U U Y T Y T Q W Q ^ ^ ( ( ( ..4.4.8.8.9.9.0.q.w.e.w.r.t.#.y.u.i.% # + @ @ @ @ @ @ @ @ @ @ @ = # q a r t u u t O r i 9 5 6 @ @ @ @ @ @ @ 9 8 q r O O O a q w 9 5 e 7 4 4 4 4 7 6 e 0 + @ @ @ @ @ @ @ @ @ - t r q 8 5 7 X 3 1 % +X'.5X%X;X3X6X. . . . . . . . . tXtXtXtX",
"          . . . . . . . . . o $ ; : % , # @ @ @ @ @ @ @ @ @ @ @ @ @ + - s u a w 5 7 X - @ @ @ @ # 1 3 2 4 6 0 9 8 w w 8 9 0 & @ @ @ @ @ @ @ 9 e e 5 5 e e 7 * 9 @ @ @ @ @ @ @ @ @ @ @ @ @ @ @ @ @ & a q i w 0 5 7 * 3 1 # + @ @ @ @ @ O , < 3 * 7 6 e e 5 e 6 4 * 3 1 , @ @ @ @ @ @ 1 < 3 2 X X 2 3 < 1 , % A U Y Y R T T T T Q Q ^ ^ ( 1.' 1.1.8.8.9.9.q.q.p.a.a.y.u.s.s.d.d.f.g.h.h.f.j.% @ @ @ @ @ @ @ @ @ @ + * 8 w i a r O t u t O a i 8 5 7 @ @ @ @ @ @ @ 0 w q a r r r a w 8 5 6 4 * X 2 2 2 X * 7 e & @ @ @ @ @ @ @ @ @ +   t a i 9 e 4 2 1 , c 5X+X0X4X$ . . . . . . . . . . tXtXtXtX",
"          . . . . . . . o . o $ ; : % , < - @ @ @ @ @ @ @ @ @ @ @ @ @ O p y O q 9 e # @ @ @ @ O 1 < 2 X 7 e 0 8 8 8 8 9 5 e 9 @ @ @ @ @ @ @ 9 e e 0 0 5 5 e 7 9 @ @ @ @ @ @ @ @ @ @ @ @ @ @ @ @ @ + t O a q w 0 e 4 X 3 O @ @ @ @ @ @ * 1 2 X 4 6 e 0 0 0 5 e 4 * 2 < , @ @ @ @ @ @ < 2 X * 4 4 4 * 2 < 1 # % G ~ E E E T W ^ ^ ( ( 1.4.4.8.9.9.q.q.p.a.y.k.k.l.z.x.x.x.h.c.v.v.b.n.m.n.f.M.@ @ @ @ @ @ @ @ @ @ @ + - # w q r O t t t O a w 9 5 6 @ @ @ @ @ @ @ 9 8 q a O r a q 8 0 e 4 X 2 3 < < < 3 3 2 4 O @ @ @ @ @ @ @ @ @ @ %   t a i 9 e 4 3 1 # *X9XqX4X$ . . . . . . . . . . tXtXtXtX",
"          . . . . . . . . . o o $ ; : % 1 # @ @ @ @ @ @ @ @ @ @ @ @ @ + # y u a w 0 - @ @ @ + 1 < 3 X 4 7 5 0 9 8 8 8 0 5 6 # @ @ @ @ @ @ @ 9 5 0 0 9 9 0 e 6 9 @ @ @ @ @ @ @ @ @ @ @ @ @ @ @ @ @ @     u O q w 0 e * 2 + @ @ @ @ @ @ 1 3 X 4 6 5 0 0 0 0 5 6 7 X 3 1 , @ @ @ @ @ @ 3 X 4 7 7 6 7 4 X 2 < 1 % N.Q ^ ^ ( ^ ( ( 1.] 4.8.9.q.w.p.a.k.k.d.l.z.x.v.v.n.n.n.n.m.m.B.V.C.Z.A.S.D.F.k & & = @ @ @ @ @ @ @ @ @ @ - q a r O t t r a i 9 5 7 @ @ @ @ @ @ @ 9 w q a a a a i 8 5 7 * 2 < , , # , , < 3 2 9 @ @ @ @ @ @ @ @ @ @ 9 y u O q 8 5 4 X < , > rX>X4X6X. . . . . . . . . . tXtXtXtX",
"          . . . . . . . . . o o $ ; : % , 3 - @ @ @ @ @ @ @ @ @ @ @ @ @ - p   O q # @ @ @ @ O 3 3 2 * 7 6 5 0 8 8 9 0 5 6 7 * + @ @ @ @ @ @ 9 0 8 8 w w 8 0 5 9 @ @ @ @ @ @ @ @ @ @ + t # y * 9 - & - s   u O i 9 5 4 * @ @ @ @ @ @ & < 2 * 6 5 0 8 8 9 9 5 6 7 * 3 < , @ @ @ @ @ @ 2 * 4 e e e 6 6 4 2 < 1 %  .( ( ( 1.1.4.8.8.9.q.t.a.u.k.l.l.z.x.v.v.v.m.G.G.Z.S.S.A.A.A.S.A.A.S.H.H.A.A.J.K.% # , * = @ @ @ @ @ @ @ @ & r O t t t r a w 0 e 7 @ @ @ @ @ @ @ 9 8 q a r a q w 8 5 7 X 3 1 # # % % % # , < 9 @ @ @ @ @ @ @ @ @ @ & s   t r i 9 6 * 3 1 % >X> ; o o . . . . . . . . . tXtXtXtX",
"          . . . . . . . . . . o $ $ : > # 1 # @ @ @ @ @ @ @ @ @ @ @ @ @ @ # s u r - @ @ @ = X 2 X * 4 6 e 0 9 9 9 0 5 6 7 * X & @ @ @ @ @ @ 9 9 8 i i i w 8 0 e @ @ @ @ @ @ @ @ @ @ # t y p - d d d k - p   t a w 5 6 - @ @ @ @ @ @ & 2 * 6 e 0 8 8 w 8 9 0 e 4 2 3 , # @ @ @ @ @ @ X 4 6 e 5 5 5 6 4 * 3 1 # L.4.8.8.8.5.9.0.p.a.u.k.l.x.x.v.v.G.G.G.Z.Z.S.S.S.H.H.H.S.A.S.H.H.S.S.H.H.S.A.S.P.K.% # , < 9 @ @ @ @ @ @ @ @ & t t t O O q w 9 6 7 @ @ @ @ @ @ @ & w i a a a q i 0 e 4 2 < , % > > : > > % , 9 @ @ @ @ @ @ @ @ @ @ & p s   t q w 5 7 X < , > : ; $ o . . . . . . . . . tXtXtXtX",
"          . . . . . . . . . . . o o ; : > , 3 O @ @ @ @ @ @ @ @ @ @ @ @ @ - -   % @ @ @ @ * 4 4 4 7 7 e 5 0 9 9 0 0 e 7 * X 2 O @ @ @ @ @ @ 9 8 w q q q i 8 9 5 = @ @ @ @ @ @ @ @ & t   s k d h h h h k - y u r i 0 6 + @ @ @ @ @ @ & X 4 e 0 9 w w i 8 9 e 7 * 2 < , # @ @ @ @ @ @ * 7 e 5 0 0 0 5 7 4 2 < # P O.q.w.w.t.y.u.d.l.I.x.v.m.m.G.G.Z.H.H.H.S.H.H.S.H.H.H.S.S.S.H.H.S.A.A.S.D.D.A.A.T.,X% # 1 3 9 @ @ @ @ @ @ @ @ 9 u u t O a 8 9 6 4 @ @ @ @ @ @ @ & w i a r a q w 0 e 4 2 < , > : : ; : : > # 9 @ @ @ @ @ @ @ @ @ @ @ - p y u r q 9 6 * 3 1 % : ; $ o . . . . . . . . . tXtXtXtX",
"          . . . . . . . . . . . o $ $ ; > # , 2 + @ @ @ @ @ @ @ @ @ @ @ @ @ # p - @ @ @ = e e 7 6 6 e 5 0 9 0 0 0 e 6 4 * 3 < 9 @ @ @ @ @ @ 9 w q a r r a i 8 0 * @ @ @ @ @ @ @ @ & u s - d f f j f h d - s u r w 9 * @ @ @ @ @ @ @ & 4 6 5 9 w i i w 8 0 5 7 * 3 1 , % @ @ @ @ @ @ % 6 e 0 9 9 0 5 6 * 2 1 # % U.k.k.d.d.l.h.I.b.n.G.Z.Z.S.S.S.H.H.H.S.H.H.H.H.S.S.S.A.D.A.S.A.Y.V.Y.V.P.T.T.P.P.8XrX# , 1 2 = @ @ @ @ @ @ @ + u u t r q w 0 e 4 @ @ @ @ @ @ @ + 8 q a a r q i 9 6 4 3 1 # % : ; ; ; : : > & @ @ @ @ @ @ @ @ @ @ @ - - s y t q 8 5 4 2 1 # > ; $ o o . . . . . . . . tXtXtXtX",
"          . . . . . . . . . . . . o $ ; : % , 3 O @ @ @ @ @ @ @ @ @ @ @ @ @ & 9 @ @ @ @ * 0 0 e 5 5 0 0 0 9 0 0 5 6 7 X 2 < < # @ @ @ @ @ @ 9 i a r r r r q w 9 5 & @ @ @ @ @ @ @ +   p k h j j j j f d - s u r w 9 O @ @ @ @ @ @ @ @ 7 5 9 w i q q i w 0 e 4 2 3 , # % @ @ @ @ @ @ 9 6 0 9 8 8 9 0 e 4 X < , % #.x.z.x.I.v.v.G.G.A.S.S.H.H.H.S.S.H.R.S.S.H.S.A.D.Y.Y.P.P.P.P.P.T.E.W.W.Q.Q.Q.J.Q.#X+X# , < 2 O @ @ @ @ @ @ @ @ 9 u t O a w 0 e 7 @ @ @ @ @ @ @ @ w q a a a q w 9 e 4 2 1 # > : ; $ $ $ ; : = @ @ @ @ @ @ @ @ @ @ @ k k p y u r w 0 7 X < # > ; ; $ o . . . . . . . . tXtXtXtX",
"          . . . . . . . . . . o o o o $ ; > % , 2 + @ @ @ @ @ @ @ @ @ @ @ @ @ @ @ @ @ = q w 8 9 0 9 9 9 9 9 0 5 6 7 * 2 3 1 , , @ @ @ @ @ @ 9 i a r O O r q w 9 5 # + @ @ @ @ @ @ @ & - d h f f j f h k p y t a w 0 & @ @ @ @ @ @ @ @ * 0 8 i q a q q 8 0 e 4 X 1 , # % @ @ @ @ @ @ 9 e 5 9 8 8 8 0 e 7 X 3 , > f.n.m.n.C.C.D.A.H.H.S.S.H.R.H.A.A.S.A.A.D.C.Y.V.!.T.W.W.Q.J.J.F.F.~.~.^.^.^././././.+X% , 1 2 * @ @ @ @ @ @ @ @ & u u O q w 0 e 4 @ @ @ @ @ @ @ @ X q r r r q i 9 e 4 2 1 # > ; $ $ o $ $ # @ @ @ @ @ @ @ @ @ @ @ @ k k - p   O q 9 6 * 3 , % : $ o o . . . . . . . . tXtXtXtX",
"          . . . . . . . . . . . . o o $ $ : % # < O @ @ @ @ @ @ @ @ @ @ @ @ @ @ @ @ @ # r q i w 8 8 8 8 9 9 0 5 6 4 X 3 < , # # + @ @ @ @ @ 9 i a O t O O a i 9 0 e # + @ @ @ @ @ @ @ + O h j f f f h k s   O q 8 0 = @ @ @ @ @ @ @ @ = 9 w q a r q q w 0 e * 2 < # % % @ @ @ @ @ @ O e 0 8 w 8 8 0 e 4 X < , % (.A.A.D.A.S.A.S.H.R.R.S.S.S.S.Z.C.C.B.P.T.T.E.W.F.F.~.).^.^.^._._.`.`.'.].].].].|.K.+X% , 1 2 * @ @ @ @ @ @ @ @ @   u t r i 9 5 6 @ @ @ @ @ @ @ @ 9 q r r r q i 9 5 4 2 1 # > : $ $ $ $ $ - @ @ @ @ @ @ @ @ @ @ @ @ k d k p y t q 8 e * 2 1 % > ; $ o . . . . . . . . tXtXtXtX",
"          . . . . . . . . . . . . . o o $ : > # 1 2 + @ @ @ @ @ @ @ @ @ @ @ @ @ @ @ -   u O r q i w w w 8 9 5 6 4 X 2 1 , # # # & @ @ @ @ @ 9 i r O t t O a i 9 5 6 6 7 - @ @ @ @ @ @ @ @ + 9 f f d k p y t r i 9 e @ @ @ @ @ @ @ @ @ @ 9 q a r r r i w 0 6 * 2 1 # % 9 @ @ @ @ @ @ & 5 9 w w i 8 9 5 6 X 3 , % (.H.A.S.H.H.H.S.H.H.S.A.C.C.P.!.E.W.W.Q.J.[.~.).{._.`.}.'.|. X X.X.XXXoXOXOXOX+X<X<X*X> # 1 3 X @ @ @ @ @ @ @ @ @ * u t r q 8 5 6 @ @ @ @ @ @ @ @ & q r r O r q 8 e 7 X < , % ; ; $ o o # @ @ @ @ @ @ @ @ @ @ @ @ = d d k - y u r w 5 7 2 1 # : ; o o o . . . . . . . tXtXtXtX",
"          . . . . . . . . . . . . . o o o $ ; > # < O @ @ @ @ @ @ @ @ @ @ @ @ @ @ @ # s   u t O a q i w 8 0 5 6 4 2 3 , # % > % & @ @ @ @ @ 9 i r O t O O a i 8 0 6 6 7 6 * + @ @ @ @ @ @ @ @ & # d - s   O a w 0 e @ @ @ @ @ @ @ @ @ @ @ 9 r O O r q 8 0 6 * 2 < # O @ @ @ @ @ @ @ = 5 9 w w i w 9 5 6 * 3 1 @X#XH.S.A.H.H.S.A.A.Z.D.V.T.E.W.F.F.).).^.{._.}.'. X XXXOXOXOXOX$X%X&X%X*X*X*X&X*X*X*XrX% , , 3 X @ @ @ @ @ @ @ @ @ 9   u O a w 0 e @ @ @ @ @ @ @ @ = q r O O a q w 5 7 X < # % ; $ $ $ o - @ @ @ @ @ @ @ @ @ @ @ @ & d h d k s u r i 5 7 2 1 # > : $ o o . . . . . . . tXtXtXtX",
"          . . . . . . . . . . . . . . o $ $ ; > % , 2 + @ @ @ @ @ @ @ @ @ @ @ @ @ & d - p y u t O a q w 8 0 e 7 X 3 1 # % > > > & @ @ @ @ @ 9 w q r O t r a i 9 5 6 7 7 4 6 5 t + @ @ @ @ @ @ @ + # p y u r i 8 5 7 @ @ @ @ @ @ @ @ @ @ @ @ & * t O a i 9 e 4 2 O + @ @ @ @ @ @ @ @ @ 0 8 i q i i 8 5 6 * 2 , % =XA.D.D.D.A.D.V.P.T.E.W.F.~.^.{.`.`.'. X X.XoXOXOX%X&X&X&X-X;X-X:X;X% O = @ % >X>X@X% > # 1 < 2 @ @ @ @ @ @ @ @ @ 9   u O a q 9 5 @ @ @ @ @ @ @ @ @ a O O O r a 8 0 6 * < , % : ; $ o 9 @ @ @ @ @ @ @ @ @ @ @ @ @ O h d d k p   O i 0 7 X < , > ; $ o . . . . . . . . tXtXtXtX",
"          . . . . . . . . . . . . . . . o $ $ : > # < O @ @ @ @ @ @ @ @ @ @ @ @ @ X f d - p y   t r a w 8 5 6 4 2 < , % > : : > 9 @ @ @ @ @ 9 w a O O O r a i 9 5 6 4 4 4 7 e 9 w O @ @ @ @ @ @ @ = s u t a w 9 e 7 @ @ @ @ @ @ @ @ @ @ @ @ @ @ + & O 9 9 - & @ @ @ @ @ @ @ @ @ @ @ @ # 8 i q q i w 0 6 * 2 1 # ,XB.P.P.T.P.T.W.W.F.~.).{._.'. X.XXXOX<X$X%X%X-X-X-X1X1X2X2X3X3X9 = @ @ @ @ O 4X: : > % # , < O @ @ @ @ @ @ @ @ @ 9     u r a w 9 & @ @ @ @ @ @ @ @ 9 r O t r a w 0 6 * 3 , % : ; ; # + @ @ @ @ @ @ @ @ @ @ @ @ @ X h f h k -   O q 0 7 X < # > : $ o o . . . . . . . tXtXtXtX",
"          . . . . . . . . . . . . . . . o o $ ; > % , 3 + @ @ @ @ @ @ @ @ @ @ @ = g f h d - s y u O a i 9 5 7 X 3 1 # % : : ; ; 9 @ @ @ @ @ 9 w q a O O r a i 9 5 7 4 4 * 4 7 e 9 q 9 @ @ @ @ @ @ @ - u r q w 0 e 7 @ @ @ @ @ @ @ @ @ @ @ @ @ @ @ @ @ @ @ @ @ @ @ @ @ @ @ @ @ @ @ @ @ 9 i q a a q w 9 e 4 2 1 # 5XW.Q.J.J.F.[.~.^._.`.'.|..XOXOX%X%X&X-X-X1X1X1X2X6X7X7X6X9 & @ @ @ @ @ @ @ + % : > % % , 1 # + @ @ @ @ @ @ @ @ @ * y   u t a i 9 0 * k & @ @ @ @ @ & O O O O a i 9 6 4 2 1 # > ; % + @ @ @ @ @ @ @ @ @ @ @ @ @ + d h h h d p   O i 9 6 * < , > ; ; $ o . . . . . . . tXtXtXtX",
"          . . . . . . . . . . . . . . . . o o $ ; > # < O @ @ @ @ @ @ @ @ @ @ @ * g j f f d p s   O a w 0 6 4 X < , % > : ; ; : 9 @ @ @ @ @ 9 8 q a O O r q i 9 e 6 * * X * 7 e 5 w q = @ @ @ @ @ @ @ # r q 8 0 e 7 & @ @ @ @ @ @ @ @ @ @ @ @ @ @ @ @ @ @ @ @ @ @ @ @ @ @ @ @ @ @ @ @ - q r r r a i 8 5 7 X < , # #X8X^.{._._.}.'. X.XOX$X%X-X-X-X2X1X3X2X6X6X. . . # - @ @ @ @ @ @ @ @ @ @ @ + O % # # 1 * + @ @ @ @ @ @ @ @ @ @ y y y   u O q 8 0 e e 6 6 e * 9 9 * O O O r a w 9 6 * 3 1 # > * + @ @ @ @ @ @ @ @ @ @ @ @ @ @ - h f f h d - y O i 9 6 X < , > ; $ o o . . . . . . . tXtXtXtX",
"          . . . . . . . . . . . . . . . o o o $ ; : % , 3 + @ @ @ @ @ @ @ @ @ + g & g g f d k s   O q w 0 6 * 3 1 # > : ; ; ; ; 9 @ @ @ @ @ 9 9 w a r r a q w 0 e 4 * X X X * 4 e 0 w O @ @ @ @ @ @ @ - a i w 9 e 7 - @ @ @ @ @ @ @ @ @ @ @ @ @ @ @ @ @ @ @ @ @ @ @ @ @ @ @ @ @ @ @ @ = r O O O r q 8 5 7 X < # % ].].]. X X.X.X<X. %X&X-X1X1X1X6X6X. . . . . . . . . @ @ @ @ @ @ @ @ @ @ @ @ @ @ @ = & @ @ @ @ @ @ @ @ @ @ @ @ &   s s y u O r i 8 0 e 6 6 e 0 8 w q r O O O q i 9 e 4 2 1 # O @ @ @ @ @ @ @ @ @ @ @ @ @ @ @ @ # h f f h d p   t q 0 7 X < # % : $ o o . . . . . . . tXtXtXtX",
"          . . . . . . . . . . . . . . . . o o $ $ ; : # 1 O @ @ @ @ @ @ @ @ @ O g & g j f h k s   O q 8 5 7 X < , % : ; $ $ $ ; 9 @ @ @ @ @ 9 9 w q r r a i w 9 e 4 X 2 3 3 X * 7 e 9 9 @ @ @ @ @ @ @ + r q w 9 5 e * @ @ @ @ @ @ @ @ @ @ @ @ @ @ @ @ @ @ @ @ @ @ @ @ @ @ @ @ @ @ @ @ @ O u u t O a i 0 6 * 3 , % +X5X5X<X%X%X&X-X. . . 2X6X. . . . . . . . . . . . # @ @ @ @ @ @ @ @ @ @ @ @ @ @ @ @ @ @ @ @ @ @ @ @ @ @ @ @ @ 9 y s s s y u r q 8 0 5 e e e 5 8 i q r O r O a i 8 5 7 X O + @ @ @ @ @ @ @ @ @ @ @ @ @ @ @ @ - d h f f h d -   O q 9 6 X < # > ; ; o o . . . . . . . tXtXtXtX",
"          . . . . . . . . . . . . . . . . . . o $ ; : > , # @ @ @ @ @ @ @ @ @ # g g & g j d k s u O i 9 e 4 2 1 # > : ; l l l z 9 @ @ @ @ @ 9 0 w q a a a q w 0 6 4 X 3 3 3 3 2 * 7 e 9 @ @ @ @ @ @ @ @ # a i w 9 e 6 + @ @ @ @ @ @ @ @ @ @ @ @ @ @ @ @ @ @ @ @ @ @ @ @ @ @ @ @ @ @ @ @ 9     u t r i 9 6 * 3 1 % *X9X&X0X:X;X;X2X2X3X. . . . . . . . . . . . . . . o = @ @ @ @ @ @ @ @ @ @ @ @ @ @ @ @ @ @ @ @ @ @ @ @ @ @ @ +   y s p p y # & 9 # 9 5 e e e 0 9 w q a r O a q i 9 % O + @ @ @ @ @ @ @ @ @ @ @ @ @ @ @ @ @ @ # h f j j f d p   O i 0 7 X < # > : $ o o . . . . . . . tXtXtXtX",
"          . . . . . . . . . . . . . . . . o . o o ; ; > # 1 - @ @ @ @ @ @ @ = f g j g j j d k s t r w 5 7 X 3 , % > z z l l x c 9 @ @ @ @ @ 9 0 w i a a a i 8 0 e * X 3 1 1 < < 2 X 7 = @ @ @ @ @ @ @ @ 9 r q w 8 9 5 O @ @ @ @ @ @ @ @ @ @ @ @ @ @ @ @ @ @ @ @ @ @ @ @ @ @ @ @ @ @ @ @ & s s   u O q 8 e 4 3 1 # % qXwX2X4X6X3X. . . . . . . . . . . . . . . . . . o * @ @ @ @ @ @ @ @ @ @ @ @ @ @ @ @ @ @ @ @ @ @ @ @ @ @ @ * y s p p p y 9 @ @ @ @ & - 9 9 # 0 8 i a a # 9 9 & + @ @ @ @ @ @ @ @ @ @ @ @ @ @ @ @ @ @ @ @ O k f f j f h d p   r w 0 7 2 < # : ; $ o o . . . . . . . tXtXtXtX",
"          . . . . . . . . . . . . . . . . . . . o o ; : > , # @ @ @ @ @ @ @ - h f g j j h d p y t q 8 5 4 2 1 , > c c z v b n b O @ @ @ @ @ 9 0 8 q a a q i 8 0 6 4 2 < 1 1 1 < < 2 9 @ @ @ @ @ @ @ @ @ 9 r a a i 8 0 5 = @ @ @ @ @ @ @ @ @ @ @ @ @ @ @ @ @ @ @ @ @ @ @ @ @ @ @ @ @ @ @ @ # p s   t a w 5 7 X 1 # > : 4X$ o o . . . . . . . . . . . . . . . . . . . . o - @ @ @ @ @ @ @ @ @ @ @ @ @ @ @ @ @ @ @ @ @ @ @ @ @ - u y p - - p s 9 @ @ @ @ @ @ @ @ @ @ @ @ @ @ @ @ @ @ @ @ @ @ @ @ @ @ @ @ @ @ @ @ @ @ @ @ @ @ & k h f g j j f k p u a w 5 4 2 1 % > ; $ o . . . . . . . . tXtXtXtX",
"          . . . . . . . . . . . . . . . . . . . o o $ ; > # 1 - @ @ @ @ @ @ 9 d h f j f h k p   O i 0 e * 3 , % c c b n b m M N & @ @ @ @ @ 9 0 8 i q a q i 8 5 7 * 2 < 1 , # , < O @ @ @ @ @ @ @ @ @ @ 9 t O a q i 8 9 # + @ @ @ @ @ @ @ @ @ @ @ @ @ @ @ @ @ @ @ @ @ @ @ @ @ @ @ @ @ @ @ * k - y u r w 5 7 X < # > z $ o . . . . . . . . . . . . . . . . . . . . . . o $ & @ @ @ @ @ @ @ @ @ @ @ @ @ @ @ @ @ @ @ @ @ @ @ &   y p p - - - p 9 @ @ @ @ @ @ @ @ @ @ @ @ @ @ @ @ @ @ @ @ @ @ @ @ @ @ @ @ @ @ @ @ @ @ @ @ @ + # h f j g j f h - s u a 8 e 4 3 1 % : ; o o o . . . . . . . tXtXtXtX",
"          . . . . . . . . . . . . . . . . . . o o o $ ; : > , * @ @ @ @ @ @ 9 - d h h h d - y t a w 0 4 X < , % n m B m N V C Z & @ @ @ @ @ 9 5 9 i q q q i 9 9 * * 3 < , % 9 - + @ @ @ @ @ @ @ @ @ @ @ 9 u t t r q i 8 9 8 + @ @ @ @ @ @ @ @ @ @ @ @ @ @ @ @ @ @ @ @ @ @ @ @ @ @ @ @ = * h d - s u r i 9 6 X < , % ; ; o ` . . . . . . . . . . . . . . . . . . . . o o $ ; O @ @ @ @ @ @ @ @ @ @ @ @ @ @ @ @ @ @ @ @ @ O     s p - k k p s 9 @ @ @ @ @ @ @ @ @ @ @ @ @ @ @ @ @ @ @ @ @ @ @ @ @ @ @ @ @ @ @ @ @ @ @ @ + # k h j j j j f d -   O q 9 6 * 3 , % : $ $ o . . . . . . . . tXtXtXtX",
"          . . . . . . . . . . . . . . . . . . . . o o $ ; > # 1 = @ @ @ @ @ * s k d d d k p y O q 9 e * 2 , % c A V V S Z D F G @ @ @ @ @ @ 9 5 9 i q a i 9 @ @ @ @ @ @ @ @ @ @ @ @ @ @ @ @ @ @ @ @ @ @ u u u u O r q w 9 9 # + @ @ @ @ @ @ @ @ @ @ @ @ @ @ @ @ @ @ @ @ @ @ @ @ @ = * f f h d k p   O i 0 e * < , % : ; $ o . . . . . . . . . . . . . . . . . . o . o o $ : > * = @ @ @ @ @ @ @ @ @ @ @ @ @ @ @ @ @ = #   s s - k - k k p s 9 @ @ @ @ @ @ @ @ @ @ @ @ @ @ @ @ @ @ @ @ @ @ @ @ @ @ @ @ @ @ @ @ @ @ @ + # d f f g g g j h k p u r w 0 7 2 < # > : $ $ o o . . . . . . . tXtXtXtX",
"          . . . . . . . . . . . . . . . . . . . o . o o ; : > , * @ = - * a t y p - k - p y t r w 0 6 * < , % H J J F K K G L # @ @ @ @ @ @ 9 5 9 w i i q 9 @ @ @ @ @ @ @ @ @ @ @ @ @ @ @ @ @ @ @ @ @ +   y y   u O a i w 8 9 9 - @ @ @ @ @ @ @ @ @ @ @ @ @ @ @ @ @ @ & @ @ @ + O j j j f f f d p y t q 8 6 * 3 , % : $ $ o . . . . . . . . . . . . . . . . . . . . o $ $ ; > # 1 * & @ @ @ @ @ @ @ @ @ @ @ @ @ & * s s s p - - k k - - s y 9 @ @ @ @ @ @ @ @ @ @ @ @ @ @ @ @ @ @ @ @ @ @ @ @ @ @ @ @ @ @ @ @ @ @ & - k h f g j j j f d - y t q 8 5 4 2 1 # > ; $ o . . . . . . . . . tXtXtXtX",
"          . . . . . . . . . . . . . . . . . . . . . o o $ ; > # 1 # 4 e 8 i O u y s p s y   r q 9 e 4 2 < # P Z F K I L U U Y T T E % , < 2 4 e 0 w i i i 9 @ @ @ @ @ @ @ @ @ @ @ @ @ @ @ @ @ @ @ @ @ - y s s s   u O a w 8 8 9 8 # O = @ @ @ @ @ @ @ @ @ @ @ + & 8 j j @ @ - g g g g g g f h d p   O i 9 6 4 3 , % : $ $ o o . . . . . . . . . . . . . . . . . o . . $ $ ; : # 1 2 * 6 9 - & = @ @ @ & & k 9 - - p - - p - k k k k - - s   9 @ @ @ @ @ @ @ @ @ @ @ @ @ @ @ @ @ @ @ @ @ @ @ @ @ @ @ @ @ @ @ @ + 8 - d h f j g g j f h k s   O i 0 6 * 3 , % : ; $ o . . . . . . . . . tXtXtXtX",
"          . . . . . . . . . . . . . . . . . . . . o o o $ ; : > , < X 7 5 w q O u   y y u O a w 0 6 X 3 , % C I L U Y R R T E E E E A # < 2 4 e 0 8 w w w 9 @ @ @ @ @ @ @ @ @ @ @ @ @ @ @ @ @ @ @ @ @ % y s s s s u O a i 8 9 9 9 8 i a t 9 8 & & & & - 9 9 & & & g g g = 9 g g g g g g j f h k p   O q 9 6 * 3 , % : ; o o . . . . . . . . . . . . . . . . . . . . o o $ ; > % 1 3 * 6 0 w a O   y p - k - k k - k - - k k k k k k p s   t 9 @ @ @ @ @ @ @ @ @ @ @ @ @ @ @ @ @ @ @ @ @ @ @ @ @ @ @ @ @ @ @ - # - k h f j j j j f h k p y t q 8 5 7 2 1 # > : ; o o o . . . . . . . . tXtXtXtX",
"          . . . . . . . . . . . . . . . . . . . . . . . o $ : > # 1 3 * 6 0 w q O t t t O a i 9 e 4 2 1 # > I U Y T T T T E E W W Q H # 1 3 * 6 5 9 w w w 9 @ @ @ @ @ @ @ @ @ @ @ @ @ @ @ @ @ @ @ @ - s p - - p s y t r q 8 9 0 0 9 8 i r t y p d h f j g g & g g & g & & g g g g j j j j h d - s u r w 9 7 X 3 , % : ; $ o o . . . . . . . . . . . . . . . . . o . o $ $ ; > % 1 3 * 6 0 w q r u y p p k k k d k d d d k k k k - - y   u O 9 @ @ @ @ @ @ @ @ @ @ @ @ @ @ @ @ @ @ @ @ @ @ @ @ @ @ @ @ @ - # - k h h f j g g j j h d - y t r i 0 7 * 3 , # : ; $ o ! o . . . . . . . . tXtXtXtX",
"          . . . . . . . . . . . . . . . . . . . . . o o o $ $ : % , 3 X 4 e 9 i q a r r a i 8 0 7 * 3 , % C Y R T E E E E W W Q ^ /  .% 1 3 X 7 e 0 9 9 9 9 @ @ @ @ @ @ @ @ @ @ @ @ @ @ @ @ @ @ @ + # s - - - - p   t a i 8 0 5 5 5 9 8 q r t y p k h f f j j g g g g j j g j j j j j f h d - s   O q w 5 7 X < , % : l o o . . . . . . . . . . . . . . . . . . . o o o $ ; : % , 3 X 4 e 9 q r t   y p - k k k k k k k k - - p s y   u O q 9 @ @ @ @ @ @ @ @ @ @ @ @ @ @ @ @ @ @ @ @ @ @ @ @ @ @ + O # - k k h h f j j j f f h d - s   O i 9 e 4 2 < , > : $ $ o o . . . . . . . . . tXtXtXtX",
"          . . . . . . . . . . . . . . . . . . . . . . o ! $ l ; : % 1 3 * 7 5 9 w i i i i 9 5 6 * 3 < , % U ~ E E W E W Q ^ / ( ..) X.% , < 2 4 6 e 0 0 0 9 @ @ @ @ @ @ @ @ @ @ @ @ @ @ @ @ @ @ + # p - k d k - p y u a i 8 0 5 e e 5 0 8 q O t   s - d h h f f f j j f f f f f h h h d k - p   u r i 9 e 4 2 1 # > : ; $ o . . . . . . . . . . . . . . . . . . . . . o $ ; : > # 1 2 * 6 5 8 q r u   y s p - - - - - - - p p s y   O r q w 9 @ @ @ @ @ @ @ @ @ @ @ @ @ @ @ @ @ @ @ @ @ @ @ = t * - - k d h h f j j j j j f h d - y u O q 8 e 7 X < , % : ; $ $ o . . . . . . . . . . tXtXtXtX",
"          . . . . . . . . . . . . . . . . . . . . . . . o o l z > % # < 2 * 7 e 0 9 8 9 0 5 6 4 X 3 , % J T E W W W ^ ( ( ) ) _ o.O.+.> , < 2 X 4 6 e 5 5 9 @ @ @ @ @ @ @ @ @ @ @ @ @ @ @ @ @ + # p - k d d k - s   t a w 0 e 6 7 7 6 e 0 8 i r t   y s - k k d d d d h d d d d k k - p p s   t r q 8 5 6 * 3 1 % > ; $ o o o . . . . . . . . . . . . . . . . . . . o o $ $ ; > % , < X 4 e 9 w q r t u y y y s s s s y y     u t r a i w 9 # + @ @ @ @ @ @ @ @ @ @ @ @ @ @ @ @ @ & & 9 * k k k d d h h h f f f f f f f h h k p y   O q 8 0 6 * 3 1 % > : ; $ o . . . . . . . . . . . tXtXtXtX",
"          . . . . . . . . . . . . . . . . . . . . . . ` o l z v n c % , < 2 * 7 6 e 5 5 e 6 4 X 3 1 # % ~ Q W ^ ^ ( ' ] [ { } | @.#.#.$.% , < 2 * 4 7 7 6 9 @ @ @ @ @ @ @ @ @ @ @ @ @ @ @ @ O s p - k d d d d k p   t q w 0 6 7 4 4 4 7 e 5 9 i a O u u y s p p - - - - - p p p s s y   u t O a i 8 0 6 * 2 < , % : ; $ o . . . . . . . . . . . . . . . . . . . . . o ! o $ ; : % # 1 3 * 4 e 0 8 i a r t t u u u u   u u t O r a q w 9 5 e 6 7 4 # 9 9 9 9 9 9 9 9 9 9 9 9 d h h h h h h h d d h h h h h f f f f f h h k - p y t r q 8 5 6 * 2 1 , > : $ $ o o o . . . . . . . . . . tXtXtXtX",
"          . . . . . . . . . . . . . . . . . . . ` ` &.*.*.x =.n -.eX% % 1 < 2 X 4 4 7 4 4 * X 3 1 # > N.^ ^ ( 1.1.4.{ O.fXr.#.#.f.f.h.JX% # 1 3 2 X * 4 4 9 @ @ @ @ @ @ @ @ @ @ @ @ @ = O y p p - d h h h h k p y u r i 9 e 7 * X 2 X * 4 6 5 0 8 i q O t t u               u u u t t O r a q w 9 5 6 4 X < , % : : $ o o o . . . . . . . . . . . . . . . . . . . . . o o $ $ ; : % , < 3 * 4 e 5 9 8 i q a a r O O r r r a q i w 9 5 e 6 4 * X X X 4 7 e 0 w a t   s - d h h h h f h h h h h h h h h f f h f f h d k - p s u t r q 8 0 6 * 2 1 , > > ; ; o o . . . . . . . . . . . . tXtXtXtX",
"          . . . . . . . . . . . . . . . . ` %.%.&.&.x =.b b m M N V H c # , 1 3 2 2 X X 2 3 < , , % H ( ( 1.4.8.9.0.r.U.#.gXg.h.c.b.n.V.K.% # 1 < 3 2 2 X X * 9 - & & & & & & & 8 9 u y s p k k k d h h d d k p   t a w 0 6 4 X 2 3 3 3 X * 7 6 5 9 8 i q a r r O O O O r O r a a q q i w 8 9 0 e 7 * 2 3 1 # % : ; $ o ! o . . . . . . . . . . . . . . . . . . . . . . . o $ ; ; : % # 1 3 2 * 7 e 5 0 9 w w w w i w w w w 9 0 5 e 7 4 * 2 2 3 3 3 X 4 6 0 w q t   s p k h h f h f f f f f f h h f h h h d d d k - p s   u O a w 9 5 7 * 2 < , # : ; $ $ o o . . . . . . . . . . . . tXtXtXtX",
"          . . . . . . . . . . . . . . ` %.%.&.x x =.b -.m N V S Z F F hXc % , 1 < 3 3 < < < , , > yX1.1.8.8.0.w.t.u.s.g.h.c.b.n.B.C.D.Z.F.M.% # , 1 < < 3 3 3 2 2 * 4 6 5 9 w a r u y s - - k d h h d d d k p y u r i 9 e 4 X 3 1 1 1 < < 3 X 4 7 e 5 0 8 8 w i i i i w i w w w 8 8 9 9 5 5 e 7 4 * 2 < , # > : ; $ o o o . . . . . . . . . . . . . . . . . . . . . . o . o o o ; : : % # 1 < 2 X 4 7 6 e e 5 0 0 0 0 0 5 e e 6 7 4 * 2 3 3 1 1 < 3 2 X 7 e 9 i r u y p - k d d h h h h d h d h h k d k k - p p s y   u O a i 8 0 e 4 * 2 1 , % : : ; $ o . . . . . . . . . . . . . . tXtXtXtX",
"          . . . . . . . . . . . . . ` %.&.*.x b -.m :.V S Z D K K I L U F H > # # , , , # , % % yX4.8.9.q.p.y.s.l.z.I.b.n.V.D.A.A.S.S.H.H.Q.,X% # # , , 1 1 1 < 3 2 X 4 e 9 w a O u y s - k d d d h d k - p y u O q 8 5 7 X 3 < , , # # , 1 < 3 2 * 4 7 6 e 5 5 0 0 0 0 0 0 5 5 e e 6 6 7 4 * X 2 3 < , % % : ; ; $ o o . . . . . . . . . . . . . . . . . . . . . . . . . o o o o ; ; : % # , 1 < 3 2 * 4 4 4 7 7 7 7 7 7 4 * X X 3 < 1 , , , # , 1 < 2 4 e 9 w a t   s p k k d d d k d k k k - k p - p p s y   u t r a q w 9 5 6 4 X 3 < , % > ; $ $ o o . o . . . . . . . . . . . . tXtXtXtX",
"          . . . . . . . . . . . . ` %.&.x =.-.;.V S Z D >.G I L U Y Y Y T T F eX> % % % % >  .jX8.q.p.a.k.l.l.x.v.n.m.C.A.S.S.S.H.H.H.S.H.H.!.=X+X> # # # , , 1 1 3 * 7 e 9 w a t   y p - k k d d k k - p y   O q w 0 6 * 2 < , # % % % % # , 1 < 3 2 X * 4 4 7 7 7 6 7 4 4 4 4 4 * * X 2 3 3 3 1 , # % > : ; ; $ o o . . . . . . . . . . . . . . . . . . . . . . . . . . . o o $ $ ; ; : > % # , 1 < < 3 2 X 2 X X X 2 2 2 3 3 1 1 , , # % % # % # < 3 X 7 e 8 i a t   y s p p - p - p p p s s y y     u u O O r q i w 9 5 e 7 * X 3 1 # > > : ; $ o o . . . . . . . . . . . . . . . tXtXtXtX",
"          . . . . . . . . . . . ` %.&.*.b m :.S Z >.K G L U Y Y T E E T E E E E I N.hXuXkXjX8.0.w.a.k.l.x.v.n.m.C.A.A.S.S.H.H.H.H.H.S.A.A.A.A.Y.W./.sX9X> % # , 1 < 2 * 6 0 8 q r u   s s - - - - - p y   u O a w 0 e 4 2 < , % > : : > : > % # , , < 3 3 2 2 2 X 2 2 X X 2 2 3 3 3 3 < < 1 , , # % % > : ; $ o o ! ! o . . . . . . . . . . . . . . . . . . . . . . . . . . . . . o $ $ $ ; : > % % # , , , < 1 < 1 < < 1 1 , , , # % > > > : > % % , < 2 4 6 0 8 i a O t u     y   y       u u u t O O r a q i w 8 0 5 e 7 * X 3 1 , # % : ; $ $ o o o o . . . . . . . . . . . . . . tXtXtXtX",
"          . . . . . . . . . . . . &.&.=.-.:.Z D G I U Y Y R T E E E E E W E W ^ ^ / 1..._ 6.w.y.k.l.x.v.m.Z.Z.A.S.S.H.S.R.H.H.S.S.S.A.Y.V.P.T.ZXW.Q.J.8X=X+X@X% # 1 3 * 7 5 8 i a O u   y s y s y y   u t a q w 0 e 4 X 3 1 # % : : : ; ; : : > > # # # , , 1 < 1 < < 1 1 < 1 1 1 , , , # # % > > > ; ; $ $ o o o o o . . . . . . . . . . . . . . . . . . . . . . . . . . . . . o o o o $ ; ; ; : > > > % # % # # , # # # % % % > > : : : ; ; : : > # 1 < 2 4 6 0 8 w q a r r O O t O O r r r a q q q i w w 9 0 5 e 6 7 * X 2 < , # % > : : $ $ o o . . . . . . . . . . . . . . . . . tXtXtXtX",
"          . . . . . . . . . . ` ` &.*.b :.S >.L Y Y Y T T E E E E E W W W ^ ^ ( lX) _ O.fXU.k.l.x.m.G.G.Z.H.H.H.H.R.H.H.H.H.S.A.D.Y.V.T.W.J.F.[.8X8X/.dX=X].+X# # , < 2 4 6 5 8 q a r t t u u u t t O a a i 9 0 6 7 X 3 , # > > ; $ $ $ $ $ $ : ; : > > % % % # # # # # % % # % % > > > > > : : ; ; ; $ $ $ o . . . . . . . . . . . . . . . . . . . . . . . . . . . . . . . . . . . o o o o $ $ $ ; : : : > > > : > > : > > : : ; ; ; $ $ ; $ ; : : > # 1 3 X 4 6 5 9 9 w i i i i i i i i i w w 8 9 0 0 5 e 6 6 7 * X 2 3 < 1 , # > : ; $ $ $ o o . . . . . . . . . . . . . . . . . . tXtXtXtX",
"          . . . . . . . . . . ` o &.x -.V D I U R E E W W W E W W ^ ^ ^ ' ' lX[ o.O.@.U.u.g.h.v.G.G.S.H.H.H.H.H.H.H.H.S.A.A.D.Y.T.E.Q.F.~.^.{.`.`.'.|.,X.X5X+X*X> # , 3 X 4 e 0 9 i q a r r a r a q i i 8 0 5 7 4 2 3 1 , > > ; ; $ $ $ o $ $ $ ; ; ; ; : : > > : > > > > > : : : : : : ; ; ; ; $ $ o o o . o o . . . . . . . . . . . . . . . . . . . . . . . . . . . . . . . . . o . . . o o o $ $ $ ; $ ; ; ; : ; ; : ; ; ; $ $ $ $ $ $ o $ $ $ : > % # , < 2 * 7 6 e 5 5 0 9 9 9 9 9 5 5 5 e e 6 6 7 4 4 * X 2 2 < < , # % % > : ; ; $ $ o . . o . . . . . . . . . . . . . . . . . tXtXtXtX",
"          . . . . . . . . . . ` %.&.=.-.V F U ~ Q W Q ^ ^ ^ ^ ^ / ( lX) [ o.} zX| U.#.f.h.c.m.G.Z.H.H.H.H.R.R.R.S.S.A.A.V.P.T.W.F.[.^.dX`.]. XXXoX<X$X%X9X*X0X0X>X% # 1 3 X 4 e e 0 9 8 w i w w 8 8 0 5 e 6 4 * 2 < , # % : ; $ $ o o o o o o o o $ $ ; ; $ ; : ; ; ; ; ; ; ; $ ; ; $ l $ $ o $ o o o 7Xo . . . . . . . . . . . . . . . . . . . . . . . . . . . . . . . . . . . . . . o . . o o o o o $ $ $ $ $ $ $ $ $ $ o $ $ o o o o o o o $ o $ ; > % , 1 < 3 2 * 4 7 7 7 7 6 7 7 6 7 7 7 4 4 * X X 2 2 3 < 1 1 , # # % : : : ; $ $ o ! o . . . . . . . . . . . . . . . . . . . . tXtXtXtX",
"          . . . . . . . . . . . %.*.x m V N.L 3.^ ( ( ( ( 1.' ..) o.o.xXzX| cXvXbXf.h.c.b.G.Z.S.H.H.H.H.H.S.S.S.A.D.V.T.E.Q.[.).^.`.'. XXXOX$X%X*X-X0X:XwX2XwXwX> > # , < 3 X * 7 e 5 5 5 5 5 5 5 e e 7 4 * X 3 1 , # > : ; ; $ o o . o . . . o o o o o o $ $ o $ $ $ $ $ $ $ $ o o $ $ o o o . o . . ` . . . . . . . . . . . . . . . . . . . . . . . . . . . . . . . . . . . . . . . . . . . . . o o o o o o o o o o o o o o o o . . . . o o o $ $ ; ; > > % , 1 < 3 3 2 X X X X * X X X 2 2 2 3 3 < < < 1 , , # % > > : ; : $ $ $ o o . o . . . . . . . . . . . . . . . . . . . . . tXtXtXtX",
"          . . . . . . . . . . ` %.&.x B H hXkXnX' ..] 4.o._ { O.zXmX| cXvXbXf.MX(.NXb.V.Y.A.S.H.H.H.H.H.S.A.D.Y.P.T.W.F.~.^._.}.|..XOX$X%X-X:X-X;X2X2X3X3X; $ $ ; ; : % , 1 3 2 X * 4 7 7 7 7 7 4 * * X 3 < 1 1 , % > : ; $ $ o ! o . o o o . . . o ! o o o o o o o o o o o o o o . . o ! o . . ` ` . . . . . . . . . . . . . . . . . . . . . . . . . . . . . . . . . . . . . . . . . . . . . . . . . . . . . o . . o . o . . . . o . o . . . . o o $ $ ; : > % # , 1 1 1 < < < < 3 < 1 < 1 1 1 , , # # % % % > > : : ; ; $ $ o o o ! o . . . . . . . . . . . . . . . . . . . . . . . tXtXtXtX",
"          . . . . . . . . . . . ` &.<.P L.yXBXVXxXO.O.zX@.CXcXU.vX#.gXf.MX(.NXZX!.P.D.A.A.A.S.H.H.S.S.A.D.V.T.E.Q.[.).{.`.]. XoX$X&X&X-X4X2X3X6X6X. . o . . . $ $ ; : > % , , < < 3 2 2 2 X X 2 2 3 3 < 1 , , % > : ; ; $ o o . o . . . . . . . . . o . . . o . o . . . . . . o . . . . o . . . . . . . . . . . . . . . . . . . . . . . . . . . . . . . . . . . . . . . . . . . . . . . . . . . . . . . . . . . o . . . . . . . . . . . . . . . . o o $ ; ; : : > > % % # # , , # # # , # # % % % % % > > > : : z ; ; $ $ $ o o o o o . . . . . . . . . . . . . . . . . . . . . . . . tXtXtXtX",
"          . . . . . . . . . . ` ` o z c AXpXSXDX| U.#.u.#.d.gXf.f.(.NXNX!.!.V.Y.Z.D.S.H.H.S.S.S.S.A.V.P.T.W.F.~.^.`.}. XXXOX%X&X-X;X2X3X6X. . . . . . . . . . . $ $ ; ; : > % # , , 1 < 1 1 < 1 1 , , , # % > : : : $ $ $ o o . . . . . . . . . . . . . . . . . ` ` ` o ` . . . . . . . . . . . . . . . . . . . . . . . . . . . . . . . . . . . . . . . . . . . . . . . . . . . . . . . . . . . . . . . . . . . . . . . . . . . . . . . . . . o . o o o $ $ ; ; ; ; : > > : > > > > > : > > : : : ; ; ; ; l $ ; $ o $ o 7Xo o . . . . . . . . . . . . . . . . . . . . . . . . . . . . tXtXtXtX",
"          . . . . . . . . . . . ` l z @XiXFXGXHXbXf.g.MXh.h.c.ZX!.b.P.V.V.D.A.S.S.S.S.H.H.S.A.D.Y.P.E.Q.[.).{.`.|..XoX$X%X-X-X;X2X6X. . . . . . . . . . . ` . ` o $ $ ; ; : > % % # # # , # # # # # > > > : : ; ; $ $ o o . . . . . . . . . . . . . . . . . . . . . . . . . . . . . . . . . . . . . . . . . . . . . . . . . . . . . . . . . . . . . . . . . . . . . . . . . . . . . . . . . . . . . . . . . . . . . . . . . . . . . . . . . . . o . . . o o o o ; ; ; ; ; : ; : : : ; : ; ; ; ; l ; l $ o $ $ o o o . . ` . . . . . . . . . . . . . . . . . . . . . . . . . . . . . . tXtXtXtX",
"          . . . . . . . . . . . . 6XwXqX9XsXJX8Xh.!.!.n.P.n.B.B.V.Y.A.S.A.S.H.H.H.S.S.S.S.D.V.P.E.Q.[.)._.}. X.XOX%X&X-X;X3X6X6X. . . . . . . . . . . . . . . . . o o $ ; $ ; ; : : > : > : > > : : : ; ; ; ; $ o o o o ! o . . . . . . . . . . . . . . . . . . . . . . . . . . . . . . . . . . . . . . . . . . . . . . . . . . . . . . . . . . . . . . . . . . . . . . . . . . . . . . . . . . . . . . . . . . . . . . . . . . . . . . . . . . . . o . . o o o o $ $ $ o $ $ $ $ $ $ $ $ $ $ $ o $ $ o 7Xo 7X7Xo ` ` . . . . . . . . . . . . . . . . . . . . . . . . . . . . . . . . tXtXtXtX",
"          . . . . . . . . . . ` ` $ 4XrX+XK./.F.T.C.A.Y.Y.D.A.A.A.S.H.H.H.S.H.H.H.A.D.D.V.T.W.F.[.^._.'. XoX$X%X-X;X1X3X6X. . . . . . . . . . . . . . . . . . . . . o o o $ $ ; $ ; ; : ; : ; ; ; ; $ ; $ o o o o o . . o . . . . . . . . . . . . . . . . . . . . . . . . . . . . . . . . . . . . . . . . . . . . . . . . . . . . . . . . . . . . . . . . . . . . . . . . . . . . . . . . . . . . . . . . . . . . . . . . . . . . . . . . . . . . . . . o . o . o . o o o o o o o o o o o o o . o . . o o . ` ` . . . . . . . . . . . . . . . . . . . . . . . . . . . . . . . . . . . tXtXtXtX",
"          . . . . . . . . . . . . 6X1X*X<XK.8XQ.C.S.H.S.S.S.H.S.A.S.H.H.S.S.S.A.A.Y.P.T.W.J.~.^.`.]..XoX$X&X-X-X2X6X. . . . . . . . . . . . . . . . . . . . . . . . . o o o o $ $ $ o $ $ $ $ $ $ $ o o o o ! o ! o . . . . . . . . . . . . . . . . . . . . . . . . . . . . . . . . . . . . . @ @ . . . @ . . . . . . . . . . . . . . . . . . . . . . . . . @ . . . . . . . . . . . . . . . . . . . . . . . . . . . . . . . . . . . . . . . . . . . . . . . . . o . . o o o ! ! o . ` ! o . ` . . . . . . . . . . . . . . . . . . . . . . . . . . . . . . . . . . . . . . . . . . . . tXtXtXtX",
"          . . . . . . . . . . ` ` 6X2X-X<X]./.W.V.S.S.A.A.S.H.H.S.A.A.A.D.Y.Y.Y.T.E.Q.F.@ @ @ @ @ oX%X&X-X1X3X7X@ . . . . . @ @ @ @ . . . . @ @ @ @ . . . @ @ @ @ @ @ . . . o o o o o o o o @ @ @ @ o o o o o @ @ . . . . . . @ @ . . . . . . . @ . . . . . . . . . . . . . @ @ @ @ . . . . @ . . . . . @ . . . . . . . . . . . . . . . . . . . . @ . . . . @ . . . . . . . . . . . . . . . . . . . . . . @ @ @ @ . . . . . . . . . . . . . . . . . . . . . . . . . . . . . o o . . . o . . . . . . . . . . . . . . . . . . . . . . . . . . . . . . . . . . . . . . . . . . . . . . . tXtXtXtX",
"          . . . . . . . . . . . ` 6X2X-X$X XdXF.T.D.D.Y.D.A.A.D.Y.V.V.V.T.T.W.W.J.~.^.@ . . . . . @ -X1X2X6X@ @ @ . . . . @ . . . . @ . . @ . . . . @ . . . . . . . @ . o . . . . o o . . @ o o o . @ . . . @ . . @ . . . . @ . . @ . . . . @ @ @ . . . . . . . . . . . . @ . . . . . . . . . . . . . . @ . . . . . . . . . . . . . . . . . . . . @ . . . . . . . . . . . . . . . . . . . . . . . . . . . @ . . . . . . . . . . . . . . . . . . . . . . . . . . . . . . . . . . . . . . . . . . . . . . . . . . . . . . . . . . . . . . . . . . . . . . . . . . . . . . . . . . . . . tXtXtXtX",
"          . . . . . . . . . . ` . 6X3X-X&XXX}.^.F.W.T.T.T.T.T.T.E.E.W.Q.J.[.~.^.{.`.@ . . @ @ @ . . @ . . . . . @ . . . . @ . . . . @ . . @ . . . . @ . . . . . . @ . . . . . . . . . . o o . . . . @ . . @ . . . . @ . . @ . . . . @ . . . . . @ . . . . . . . . . . . . @ . . . . . . . @ @ @ . . . . @ . @ @ . . . . @ @ @ . . . . @ @ @ . . @ @ @ @ . . @ . . . @ @ @ . . . . @ . @ @ . . . . . . . . @ . . . . . . . @ @ . . . . @ . . . @ . . @ . @ @ . . @ @ @ . . . @ . . . @ . . . . . . . . . . . . . . . . . . . . . . . . . . . . . . . . . . . . . . . . . . . . . . . . tXtXtXtX",
"          . . . . . . . . . . . . 6X6X1X&X$X.X}.^.).F.[.F.J.J.F.[.).).^.{._.`.'. X.X@ . @ . . . . . @ . . . . . @ . . . . @ . . . . @ . . @ . . . . @ . . . . . @ . . . . . . . . . . . . . . . . . @ . . @ . . . . @ . . @ . . . . @ . . . . . @ . . . . . . . . . . . . @ @ . . . . . @ . . . @ . . . @ @ . . @ . . @ . . . @ . . @ . . . . . . @ . . . . @ . . @ . . . @ . . . @ @ . . @ . . . . . . . @ . . . . . . @ . . @ . . . @ . . . @ . . @ @ . . . @ . . . @ . . @ . . . @ . . . . . . . . . . . . . . . . . . . . . . . . . . . . . . . . . . . . . . . . . . . . . . . . tXtXtXtX",
"          . . . . . . . . . . . ` ` 6X4X1X&X<X.X|.`.`._.{._.{._._.`.}.|. X.XXXOXOX%X@ . @ . . . . . @ . . . . . @ . . . . . @ @ @ @ @ . . . @ @ @ @ @ . . . . . @ . . . . @ @ @ @ @ @ @ . . . . . @ . . . @ . . . . @ . . @ . . . . @ . . . . . @ . . . . . . . . . . . . . @ @ @ . . . @ . . . @ . . . @ . . . @ . . . . . . @ . . @ . . . . . . @ . . . . @ . . @ . . . @ . . . @ . . . @ . . . . . . . @ @ @ @ . . @ . . . . @ . . @ . . . @ . . @ . . . . @ . . . @ . . @ . . . @ . . . . . . . . . . . . . . . . . . . . . . . . . . . . . . . . . . . . . . . . . . . . . . . . tXtXtXtX",
"          . . . . . . . . . . . . ` . 3X2X;X&X%X<X.X.X X X X X.X.XXXXXOXOX%X%X-X-X:X@ . @ . . . . . @ . . . . . @ . . . . . . . . . @ . . . . . . . @ . . . . @ . . . . . . . . . . . . . . . . @ . . . . @ . . . . @ . . @ . . . . @ . . . . . @ . . . . . . . . . . . . . . . @ @ . . @ @ @ @ @ . . . @ . . . @ . . . @ @ @ @ . . . @ @ . . . . @ . . . . @ . . @ @ @ @ @ . . . @ . . . @ . . . . . . . @ . . . . . @ . . . . @ . . @ . . . @ . . @ . . . . @ @ @ @ @ . . . @ . @ . . . . . . . . . . . . . . . . . . . . . . . . . . . . . . . . . . . . . . . . . . . . . . . . . tXtXtXtX",
"          . . . . . . . . . . . . . . . 6X2X2X-X&X&X%X%X$X$X$X$X%X&X&X-X-X-X1X2X2X6X@ . . @ @ @ . . @ . . . . . @ . . . . . . . . . @ . . . . . . . @ . . . . @ . . . . . . . . . . . . . . . @ . . . . . @ . . . . @ . . @ . . . . @ . . . . . @ . . . . . . . . . . . . . . . . @ . . @ . . . . . . . @ . . . @ . . @ . . . @ . . . . . @ . . . @ . . . . @ . . @ . . . . . . . @ . . . @ . . . . . . . @ . . . . . @ . . . . @ . . @ . . . @ . . @ . . . . @ . . . . . . . @ . @ . . . . . . . . . . . . . . . . . . . . . . . . . . . . . . . . . . . . . . . . . . . . . . . . . tXtXtXtX",
"          . . . . . . . . . . . . . . . . 6X6X3X1X;X-X-X-X-X-X-X;X2X1X2X3X3X6X6X. . . @ . . . . . @ . . . . . . @ . . . . @ . . . . @ . . @ . . . . @ . . . @ . . . . . . . . . . . . . . . @ . . . . . . . @ . . @ . . . . @ . . @ . . . . . . @ . . . . . . . . . . . . . . . . @ . . @ . . . @ . . . @ . . . @ . . @ . . . @ . . . . . @ . . . @ . . . . @ . . @ . . . @ . . . @ . . . @ . . . . . . . @ . . . . . . @ . . @ . . . @ . . @ @ . . @ . . . . @ . . . @ . . . . @ . . . . . . . . . . . . . . . . . . . . . . . . . . . . . . . . . . . . . . . . . . . . . . . . . . tXtXtXtX",
"          . . . . . . . . . . . . . . . . . . 6X6X3X6X3X2X3X6X6X3X3X. . . . . . . . . . @ @ @ @ @ . . . . . . . @ . . . . . @ @ @ @ . . . . @ @ @ @ . . . . @ . . . . . . . . . . . . . . @ @ @ @ @ @ . . . . @ @ . . . . . . @ @ . . . . . . . @ . . . . . . . . . . . . @ @ @ @ . . . . @ @ @ . . . . @ @ @ @ . . . . @ @ @ . @ . @ @ @ . . . . . @ @ . . @ . . . @ @ @ . . . . @ . . . @ . . . . . . . @ . . . . . . . @ @ . . . . . @ @ . @ . . @ . . . . . @ @ @ . . . . . @ . . . . . . . . . . . . . . . . . . . . . . . . . . . . . . . . . . . . . . . . . . . . . . . . . . tXtXtXtX",
"          . . . . . . . . . . . . . . . . . . . . . . . 6X. . . . . . . . . . . . . . . . . . . . . . . . . . . . . . . . . . . . . . . . . . . . . . . . . . . . . . . . . . . . . . . . . . . . . . . . . . . . . . . . . . . . . . . . . . . . . . . . . . . . . . . . . . . . . . . . . . . . . . . . . . . . . . . . . . . . . . . . . . . . . . . . . . . . . . . . . . . . . . . . . . . . . . . . . . . . . . . . . . . . . . . . . . . . . . . . . . . . . . . . . . @ . . . . . . . . . . . . . . . . . . . . . . . . . . . . . . . . . . . . . . . . . . . . . . . . . . . tXtXtXtX",
"          . . . . . . . . . . . . . . . . . . . . . . . . . . . . . . . . . . . . . . . . . . . . . . . . . . . . . . . . . . . . . . . . . . . . . . . . . . . . . . . . . . . . . . . . . . . . . . . . . . . . . . . . . . . . . . . . . . . . . . . . . . . . . . . . . . . . . . . . . . . . . . . . . . . . . . . . . . . . . . . . . . . . . . . . . . . . . . . . . . . . . . . . . . . . . . . . . . . . . . . . . . . . . . . . . . . . . . . . . . . . . . . . . @ @ . . . . . . . . . . . . . . . . . . . . . . . . . . . . . . . . . . . . . . . . . . . . . . . . . . . tXtXtXtX",
"          . . . . . . . . . . . . . . . . . . . . . . . . . . . . . . . . . . . . . . . . . . . . . . . . . . . . . . . . . . . . . . . . . . . . . . . . . . . . . . . . . . . . . . . . . . . . . . . . . . . . . . . . . . . . . . . . . . . . . . . . . . . . . . . . . . . . . . . . . . . . . . . . . . . . . . . . . . . . . . . . . . . . . . . . . . . . . . . . . . . . . . . . . . . . . . . . . . . . . . . . . . . . . . . . . . . . . . . . . . . . . . . . . . . . . . . . . . . . . . . . . . . . . . . . . . . . . . . . . . . . . . . . . . . . . . . . . . . . . . tXtXtXtX",
"          . . . . . . . . . . . . . . . . . . . . . . . . . . . . . . . . . . . . . . . . . . . . . . . . . . . . . . . . . . . . . . . . . . . . . . . . . . . . . . . . . . . . . . . . . . . . . . . . . . . . . . . . . . . . . . . . . . . . . . . . . . . . . . . . . . . . . . . . . . . . . . . . . . . . . . . . . . . . . . . . . . . . . . . . . . . . . . . . . . . . . . . . . . . . . . . . . . . . . . . . . . . . . . . . . . . . . . . . . . . . . . . . . . . . . . . . . . . . . . . . . . . . . . . . . . . . . . . . . . . . . . . . . . . . . . . . . . . . . . tXtXtXtX",
"          . . . . . . . . . . . . . . . . . . . . . . . . . . . . . . . . . . . . . . . . . . . . . . . . . . . . . . . . . . . . . . . . . . . . . . . . . . . . . . . . . . . . . . . . . . . . . . . . . . . . . . . . . . . . . . . . . . . . . . . . . . . . . . . . . . . . . . . . . . . . . . . . . . . . . . . . . . . . . . . . . . . . . . . . . . . . . . . . . . . . . . . . . . . . . . . . . . . . . . . . . . . . . . . . . . . . . . . . . . . . . . . . . . . . . . . . . . . . . . . . . . . . . . . . . . . . . . . . . . . . . . . . . . . . . . . . . . . . . . tXtXtXtX",
"          . . . . . . . . . . . . . . . . . . . . . . . . . . . . . . . . . . . . . . . . . . . . . . . . . . . . . . . . . . . . . . . . . . . . . . . . . . . . . . . . . . . . . . . . . . . . . . . . . . . . . . . . . . . . . . . . . . . . . . . . . . . . . . . . . . . . . . . . . . . . . . . . . . . . . . . . . . . . . . . . . . . . . . . . . . . . . . . . . . . . . . . . . . . . . . . . . . . . . . . . . . . . . . . . . . . . . . . . . . . . . . . . . . . . . . . . . . . . . . . . . . . . . . . . . . . . . . . . . . . . . . . . . . . . . . . . . . . . . . tXtXtXtX",
"          . . . . . . . . . . . . . . . . . . . . . . . . . . . . . . . . . . . . . . . . . . . . . . . . . . . . . . . . . . . . . . . . . . . . . . . . . . . . . . . . . . . . . . . . . . . . . . . . . . . . . . . . . . . . . . . . . . . . . . . . . . . . . . . . . . . . . . . . . . . . . . . . . . . . . . . . . . . . . . . . . . . . . . . . . . . . . . . . . . . . . . . . . . . . . . . . . . . . . . . . . . . . . . . . . . . . . . . . . . . . . . . . . . . . . . . . . . . . . . . . . . . . . . . . . . . . . . . . . . . . . . . . . . . . . . . . . . . . . . tXtXtXtX",
"          . . . . . . . . . . . . . . . . . . . . . . . . . . . . . . . . . . . . . . . . . . . . . . . . . . . . . . . . . . . . . . . . . . . . . . . . . . . . . . . . . . . . . . . . . . . . . . . . . . . . . . . . . . . . . . . . . . . . . . . . . . . . . . . . . . . . . . . . . . . . . . . . . . . . . . . . . . . . . . . . . . . . . . . . . . . . . . . . . . . . . . . . . . . . . . . . . . . . . . . . . . . . . . . . . . . . . . . . . . . . . . . . . . . . . . . . . . . . . . . . . . . . . . . . . . . . . . . . . . . . . . . . . . . . . . . . . . . . . . tXtXtXtX",
"        tXtXtXtXtXtXtXtXtXtXtXtXtXtXtXtXtXtXtXtXtXtXtXtXtXtXtXtXtXtXtXtXtXtXtXtXtXtXtXtXtXtXtXtXtXtXtXtXtXtXtXtXtXtXtXtXtXtXtXtXtXtXtXtXtXtXtXtXtXtXtXtXtXtXtXtXtXtXtXtXtXtXtXtXtXtXtXtXtXtXtXtXtXtXtXtXtXtXtXtXtXtXtXtXtXtXtXtXtXtXtXtXtXtXtXtXtXtXtXtXtXtXtXtXtXtXtXtXtXtXtXtXtXtXtXtXtXtXtXtXtXtXtXtXtXtXtXtXtXtXtXtXtXtXtXtXtXtXtXtXtXtXtXtXtXtXtXtXtXtXtXtXtXtXtXtXtXtXtXtXtXtXtXtXtXtXtXtXtXtXtXtXtXtXtXtXtXtXtXtXtXtXtXtXtXtXtXtXtXtXtXtXtXtXtXtXtXtXtXtXtXtXtXtXtXtXtXtXtXtXtXtXtXtXtXtXtXtXtXtXtXtXtXtXtXtXtXtXtXtXtXtXtXtXtXtXtXtXtXtXtXtXtXtXtXtXtXtXtXtXtXtXtXtXtXtXtXtXtXtXtXtXtX",
"      tXtXtXtXtXtXtXtXtXtXtXtXtXtXtXtXtXtXtXtXtXtXtXtXtXtXtXtXtXtXtXtXtXtXtXtXtXtXtXtXtXtXtXtXtXtXtXtXtXtXtXtXtXtXtXtXtXtXtXtXtXtXtXtXtXtXtXtXtXtXtXtXtXtXtXtXtXtXtXtXtXtXtXtXtXtXtXtXtXtXtXtXtXtXtXtXtXtXtXtXtXtXtXtXtXtXtXtXtXtXtXtXtXtXtXtXtXtXtXtXtXtXtXtXtXtXtXtXtXtXtXtXtXtXtXtXtXtXtXtXtXtXtXtXtXtXtXtXtXtXtXtXtXtXtXtXtXtXtXtXtXtXtXtXtXtXtXtXtXtXtXtXtXtXtXtXtXtXtXtXtXtXtXtXtXtXtXtXtXtXtXtXtXtXtXtXtXtXtXtXtXtXtXtXtXtXtXtXtXtXtXtXtXtXtXtXtXtXtXtXtXtXtXtXtXtXtXtXtXtXtXtXtXtXtXtXtXtXtXtXtXtXtXtXtXtXtXtXtXtXtXtXtXtXtXtXtXtXtXtXtXtXtXtXtXtXtXtXtXtXtXtXtXtXtXtXtXtXtXtXtXtXtXtX",
"    tXtXtXtXtXtXtXtXtXtXtXtXtXtXtXtXtXtXtXtXtXtXtXtXtXtXtXtXtXtXtXtXtXtXtXtXtXtXtXtXtXtXtXtXtXtXtXtXtXtXtXtXtXtXtXtXtXtXtXtXtXtXtXtXtXtXtXtXtXtXtXtXtXtXtXtXtXtXtXtXtXtXtXtXtXtXtXtXtXtXtXtXtXtXtXtXtXtXtXtXtXtXtXtXtXtXtXtXtXtXtXtXtXtXtXtXtXtXtXtXtXtXtXtXtXtXtXtXtXtXtXtXtXtXtXtXtXtXtXtXtXtXtXtXtXtXtXtXtXtXtXtXtXtXtXtXtXtXtXtXtXtXtXtXtXtXtXtXtXtXtXtXtXtXtXtXtXtXtXtXtXtXtXtXtXtXtXtXtXtXtXtXtXtXtXtXtXtXtXtXtXtXtXtXtXtXtXtXtXtXtXtXtXtXtXtXtXtXtXtXtXtXtXtXtXtXtXtXtXtXtXtXtXtXtXtXtXtXtXtXtXtXtXtXtXtXtXtXtXtXtXtXtXtXtXtXtXtXtXtXtXtXtXtXtXtXtXtXtXtXtXtXtXtXtXtXtXtXtXtXtXtXtXtXtX",
"  tXtXtXtXtXtXtXtXtXtXtXtXtXtXtXtXtXtXtXtXtXtXtXtXtXtXtXtXtXtXtXtXtXtXtXtXtXtXtXtXtXtXtXtXtXtXtXtXtXtXtXtXtXtXtXtXtXtXtXtXtXtXtXtXtXtXtXtXtXtXtXtXtXtXtXtXtXtXtXtXtXtXtXtXtXtXtXtXtXtXtXtXtXtXtXtXtXtXtXtXtXtXtXtXtXtXtXtXtXtXtXtXtXtXtXtXtXtXtXtXtXtXtXtXtXtXtXtXtXtXtXtXtXtXtXtXtXtXtXtXtXtXtXtXtXtXtXtXtXtXtXtXtXtXtXtXtXtXtXtXtXtXtXtXtXtXtXtXtXtXtXtXtXtXtXtXtXtXtXtXtXtXtXtXtXtXtXtXtXtXtXtXtXtXtXtXtXtXtXtXtXtXtXtXtXtXtXtXtXtXtXtXtXtXtXtXtXtXtXtXtXtXtXtXtXtXtXtXtXtXtXtXtXtXtXtXtXtXtXtXtXtXtXtXtXtXtXtXtXtXtXtXtXtXtXtXtXtXtXtXtXtXtXtXtXtXtXtXtXtXtXtXtXtXtXtXtXtXtXtXtXtXtXtXtXtX"
};
